marker,starttime,endtime,cardId,next_start,diff
action,1673765,1674213,8,1674382,0.169
action,1674382,1674542,8,1674680,0.138
action,1674680,1674980,8,1686884,11.904
action,1686884,1686896,8,1687789,0.893
action,1687789,1687812,8,1688749,0.937
action,1688749,1688764,8,1690270,1.506
action,1690270,1690343,8,1691138,0.795
action,1691138,1691289,8,1709349,18.06
action,1709349,1709899,8,1711931,2.032
action,1711931,1711944,8,1712914,0.97
action,1712914,1713014,8,1716253,3.239
action,1716253,1716387,10,1717817,1.43
action,1717817,1717921,8,1720263,2.342
action,1720263,1720274,8,1721380,1.106
action,1721380,1721391,10,1722672,1.281
action,1722672,1722672,8,1723614,0.942
action,1723614,1723652,8,1725188,1.536
action,1725188,1725249,8,1726590,1.341
action,1726590,1726715,8,1747482,20.767
action,1747482,1747897,8,1748301,0.404
action,1748301,1748427,8,1748581,0.154
action,1748581,1748772,8,1749326,0.554
action,1749326,1749688,8,1749779,0.091
action,1749779,1749968,8,1750056,0.088
action,1750056,1750250,8,1751859,1.609
action,1751859,1752324,8,1761973,9.649
action,1761973,1762125,8,1762473,0.348
action,1762473,1762758,8,1763203,0.445
action,1763203,1763486,8,1763605,0.119
action,1763605,1763876,8,1763984,0.108
action,1763984,1764252,8,1764394,0.142
action,1764394,1764487,8,1764579,0.092
action,1764579,1764783,8,1764916,0.133
action,1764916,1765155,8,1765356,0.201
action,1765356,1765669,8,1765801,0.132
action,1765801,1766081,8,1766917,0.836
action,1766917,1767252,8,1767682,0.43
action,1767682,1767895,8,1768002,0.107
action,1768002,1768352,8,1768416,0.064
action,1768416,1768629,8,1768730,0.101
action,1768730,1769074,8,1769167,0.093
action,1769167,1769381,8,1770198,0.817
action,1770198,1770427,8,1770521,0.094
action,1770521,1771002,8,1771068,0.066
action,1771068,1771392,8,1771475,0.083
action,1771475,1771612,8,1771684,0.072
action,1771684,1771831,8,1772121,0.29
action,1772121,1772389,8,1772463,0.074
action,1772463,1772733,8,1772843,0.11
action,1772843,1772966,8,1773043,0.077
action,1773043,1773415,8,1774164,0.749
action,1774164,1774323,8,1774966,0.643
action,1774966,1775154,8,1775206,0.052
action,1775206,1775578,8,1776885,1.307
action,1776885,1777197,8,1777274,0.077
action,1777274,1777609,8,1777678,0.069
action,1777678,1778021,8,1778297,0.276
action,1778297,1778484,8,1778615,0.131
action,1778615,1778763,8,1778905,0.142
action,1778905,1779182,8,1779397,0.215
action,1779397,1779625,8,1780329,0.704
action,1780329,1780677,8,1788589,7.912
action,1788589,1788764,8,1788873,0.109
action,1788873,1789039,8,1790081,1.042
action,1790081,1790573,8,1790804,0.231
action,1790804,1791098,8,1791821,0.723
action,1791821,1792042,8,1792154,0.112
action,1792154,1792451,8,1792755,0.304
action,1792755,1793024,8,1793391,0.367
action,1793391,1793723,8,1793976,0.253
action,1793976,1794242,8,1794332,0.09
action,1794332,1794580,8,1794654,0.074
action,1794654,1794723,8,1798753,4.03
action,1798753,1799181,8,1799327,0.146
action,1799327,1799605,8,1799667,0.062
action,1799667,1799958,8,1800029,0.071
action,1800029,1800503,8,1800630,0.127
action,1800630,1800906,8,1800988,0.082
action,1800988,1801202,8,1801471,0.269
action,1801471,1801810,8,1801912,0.102
action,1801912,1802641,8,1803000,0.359
action,1803000,1803130,8,1803236,0.106
action,1803236,1803332,8,1803390,0.058
action,1803390,1803580,8,1803893,0.313
action,1803893,1804250,8,1804340,0.09
action,1804340,1804804,8,1805303,0.499
action,1805303,1805467,8,1805547,0.08
action,1805547,1805953,8,1806007,0.054
action,1806007,1806347,8,1806445,0.098
action,1806445,1806643,8,1806707,0.064
action,1806707,1807049,8,1807909,0.86
action,1807909,1808027,8,1953415,145.388
action,1953415,1953808,8,1953973,0.165
action,1953973,1954312,8,1954435,0.123
action,1954435,1954692,8,1954888,0.196
action,1954888,1955200,8,1955727,0.527
action,1955727,1955895,8,1956726,0.831
action,1956726,1956956,8,1957056,0.1
action,1957056,1957443,8,1957583,0.14
action,1957583,1957930,8,1958162,0.232
action,1958162,1958600,8,1958657,0.057
action,1958657,1959190,8,1959295,0.105
action,1959295,1959430,8,1959515,0.085
action,1959515,1959569,8,1959652,0.083
action,1959652,1959899,8,1960188,0.289
action,1960188,1960396,8,1961058,0.662
action,1961058,1961193,8,1961250,0.057
action,1961250,1962062,8,1962161,0.099
action,1962161,1962263,8,1962317,0.054
action,1962317,1962517,8,1964700,2.183
action,1964700,1965313,8,1965401,0.088
action,1965401,1965519,8,1965565,0.046
action,1965565,1966041,8,1966631,0.59
action,1966631,1966965,8,1967064,0.099
action,1967064,1967566,8,1967633,0.067
action,1967633,1967776,8,1967826,0.05
action,1967826,1968063,8,1968630,0.567
action,1968630,1968953,8,1972772,3.819
action,1972772,1973162,8,1973830,0.668
action,1973830,1974109,8,1974164,0.055
action,1974164,1974454,8,1974935,0.481
action,1974935,1975437,8,1976866,1.429
action,1976866,1977121,8,1977494,0.373
action,1977494,1977880,8,1977961,0.081
action,1977961,1978206,8,1978353,0.147
action,1978353,1978954,8,1979417,0.463
action,1979417,1979686,8,1980042,0.356
action,1980042,1980439,8,1980830,0.391
action,1980830,1981119,8,1981566,0.447
action,1981566,1981855,8,1982342,0.487
action,1982342,1982867,8,1983332,0.465
action,1983332,1983477,8,1984108,0.631
action,1984108,1984449,8,1984545,0.096
action,1984545,1984800,8,1984865,0.065
action,1984865,1985231,8,1985299,0.068
action,1985299,1986105,8,1986222,0.117
action,1986222,1986361,8,1990027,3.666
action,1990027,1990199,8,1990272,0.073
action,1990272,1990411,8,1990585,0.174
action,1990585,1990812,8,1991240,0.428
action,1991240,1991719,8,1992181,0.462
action,1992181,1992546,8,1992756,0.21
action,1992756,1992952,8,1993020,0.068
action,1993020,1993209,8,1994256,1.047
action,1994256,1994408,8,1994506,0.098
action,1994506,1994662,8,1995430,0.768
action,1995430,1996113,8,1996162,0.049
action,1996162,1996240,8,1996369,0.129
action,1996369,1996944,8,1997519,0.575
action,1997519,1998023,8,1998293,0.27
action,1998293,1998394,8,1998443,0.049
action,1998443,1999107,8,1999744,0.637
action,1999744,2000169,8,2000293,0.124
action,2000293,2000702,8,2000767,0.065
action,2000767,2000988,8,2001045,0.057
action,2001045,2001202,8,2001784,0.582
action,2001784,2002074,8,2002392,0.318
action,2002392,2002514,8,2002591,0.077
action,2002591,2002758,8,2002817,0.059
action,2002817,2002922,8,2014015,11.093
action,2014015,2014205,8,2016015,1.81
action,2016015,2016223,8,2017021,0.798
action,2017021,2017398,8,2017485,0.087
action,2017485,2017819,8,2018269,0.45
action,2018269,2018631,8,2019001,0.37
action,2019001,2019317,8,2019421,0.104
action,2019421,2019771,8,2019900,0.129
action,2019900,2020043,8,2020122,0.079
action,2020122,2020560,8,2020671,0.111
action,2020671,2020897,8,2020967,0.07
action,2020967,2022073,8,2023265,1.192
action,2023265,2023541,8,2023627,0.086
action,2023627,2023947,8,2024008,0.061
action,2024008,2024309,8,2024472,0.163
action,2024472,2024654,8,2024722,0.068
action,2024722,2024949,8,2025005,0.056
action,2025005,2025296,8,2025370,0.074
action,2025370,2025883,8,2026849,0.966
action,2026849,2027184,8,2027761,0.577
action,2027761,2028131,8,2028190,0.059
action,2028190,2028408,8,2028456,0.048
action,2028456,2028713,8,2029094,0.381
action,2029094,2029577,8,2029722,0.145
action,2029722,2030749,8,2031295,0.546
action,2031295,2031462,8,2031708,0.246
action,2031708,2032001,8,2033158,1.157
action,2033158,2033564,8,2033697,0.133
action,2033697,2034006,8,2034065,0.059
action,2034065,2034278,8,2034857,0.579
action,2034857,2035192,8,2035613,0.421
action,2035613,2035903,8,2036250,0.347
action,2036250,2036794,8,2037976,1.182
action,2037976,2038370,8,2038434,0.064
action,2038434,2038694,8,2038957,0.263
action,2038957,2040377,8,2040524,0.147
action,2040524,2040638,8,2040741,0.103
action,2040741,2040878,8,2040926,0.048
action,2040926,2041108,8,2041560,0.452
action,2041560,2041707,8,2041834,0.127
action,2041834,2041946,8,2042021,0.075
action,2042021,2042172,8,2042670,0.498
action,2042670,2042810,8,2043648,0.838
action,2043648,2043922,8,2044146,0.224
action,2044146,2044296,8,2044371,0.075
action,2044371,2044451,8,2044503,0.052
action,2044503,2044821,8,2044885,0.064
action,2044885,2045001,8,2045127,0.126
action,2045127,2045204,8,2058005,12.801
action,2058005,2058289,8,2058329,0.04
action,2058329,2058455,8,2058548,0.093
action,2058548,2058630,8,2058980,0.35
action,2058980,2059159,8,2059396,0.237
action,2059396,2059562,8,2059707,0.145
action,2059707,2059857,8,2061018,1.161
action,2061018,2061314,8,2061638,0.324
action,2061638,2061917,8,2062015,0.098
action,2062015,2062659,8,2062934,0.275
action,2062934,2063153,8,2063920,0.767
action,2063920,2064185,8,2065019,0.834
action,2065019,2065161,8,2065487,0.326
action,2065487,2065822,8,2065879,0.057
action,2065879,2066083,8,2066156,0.073
action,2066156,2066282,8,2066337,0.055
action,2066337,2066537,8,2066591,0.054
action,2066591,2067344,8,2067410,0.066
action,2067410,2067635,8,2068023,0.388
action,2068023,2068370,8,2069194,0.824
action,2069194,2069332,8,2070015,0.683
action,2070015,2070515,8,2070599,0.084
action,2070599,2071362,8,2071426,0.064
action,2071426,2071744,8,2072168,0.424
action,2072168,2072551,8,2074892,2.341
action,2074892,2075416,8,2075710,0.294
action,2075710,2075856,8,2075917,0.061
action,2075917,2076313,8,2077154,0.841
action,2077154,2077342,8,2077473,0.131
action,2077473,2077776,8,2077871,0.095
action,2077871,2078138,8,2078226,0.088
action,2078226,2078705,8,2079016,0.311
action,2079016,2079343,8,2079552,0.209
action,2079552,2079896,8,2080199,0.303
action,2080199,2080335,8,2080797,0.462
action,2080797,2081100,8,2081171,0.071
action,2081171,2081812,8,2081878,0.066
action,2081878,2082069,8,2082415,0.346
action,2082415,2082758,8,2083379,0.621
action,2083379,2083699,8,2084844,1.145
action,2084844,2085145,8,2085678,0.533
action,2085678,2086056,8,2086132,0.076
action,2086132,2086612,8,2086657,0.045
action,2086657,2086827,8,2086878,0.051
action,2086878,2087568,8,2087871,0.303
action,2087871,2088127,8,2088435,0.308
action,2088435,2088868,8,2088957,0.089
action,2088957,2089176,8,2089289,0.113
action,2089289,2089485,8,2089627,0.142
action,2089627,2089884,8,2090333,0.449
action,2090333,2090498,8,2091460,0.962
action,2091460,2091771,8,2092029,0.258
action,2092029,2092132,8,2092829,0.697
action,2092829,2093183,8,2093229,0.046
action,2093229,2093342,8,2093441,0.099
action,2093441,2093595,8,2094061,0.466
action,2094061,2094334,8,2094404,0.07
action,2094404,2094567,8,2094665,0.098
action,2094665,2094791,8,2095193,0.402
action,2095193,2095322,8,2095447,0.125
action,2095447,2095691,8,2105524,9.833
action,2105524,2105597,8,2111539,5.942
action,2111539,2111598,8,2117142,5.544
action,2117142,2117797,8,2117844,0.047
action,2117844,2117920,8,2117980,0.06
action,2117980,2118137,8,2118333,0.196
action,2118333,2118510,8,2118548,0.038
action,2118548,2118901,8,2119486,0.585
action,2119486,2119847,8,2120365,0.518
action,2120365,2120614,8,2120784,0.17
action,2120784,2120958,8,2121027,0.069
action,2121027,2121386,8,2121493,0.107
action,2121493,2121648,8,2121721,0.073
action,2121721,2122172,8,2122509,0.337
action,2122509,2122622,8,2122717,0.095
action,2122717,2122989,8,2123098,0.109
action,2123098,2123369,8,2123555,0.186
action,2123555,2123689,8,2123744,0.055
action,2123744,2124382,8,2125243,0.861
action,2125243,2125487,8,2125605,0.118
action,2125605,2125734,8,2126900,1.166
action,2126900,2127392,8,2130216,2.824
action,2130216,2130579,8,2130841,0.262
action,2130841,2131138,8,2131464,0.326
action,2131464,2131876,8,2131960,0.084
action,2131960,2132039,8,2132129,0.09
action,2132129,2132184,8,2132331,0.147
action,2132331,2132704,8,2132762,0.058
action,2132762,2132887,8,2133258,0.371
action,2133258,2133489,8,2133763,0.274
action,2133763,2133965,8,2134254,0.289
action,2134254,2134559,8,2134676,0.117
action,2134676,2134800,8,2147309,12.509
action,2147309,2147656,8,2148530,0.874
action,2148530,2149461,8,2149713,0.252
action,2149713,2150009,8,2150131,0.122
action,2150131,2150436,8,2150515,0.079
action,2150515,2150771,8,2151348,0.577
action,2151348,2151594,8,2152057,0.463
action,2152057,2152181,8,2152258,0.077
action,2152258,2152353,8,2152624,0.271
action,2152624,2152994,8,2153599,0.605
action,2153599,2153874,8,2154462,0.588
action,2154462,2155105,8,2156535,1.43
action,2156535,2156700,8,2156772,0.072
action,2156772,2157255,8,2157752,0.497
action,2157752,2158009,8,2158083,0.074
action,2158083,2158311,8,2158678,0.367
action,2158678,2159322,8,2159358,0.036
action,2159358,2159653,8,2160181,0.528
action,2160181,2160529,8,2161209,0.68
action,2161209,2161410,8,2161472,0.062
action,2161472,2161932,8,2162840,0.908
action,2162840,2163230,8,2163892,0.662
action,2163892,2164435,8,2164736,0.301
action,2164736,2165302,8,2165592,0.29
action,2165592,2166041,8,2166212,0.171
action,2166212,2166343,8,2166405,0.062
action,2166405,2166507,8,2166577,0.07
action,2166577,2166892,8,2167038,0.146
action,2167038,2167308,8,2167421,0.113
action,2167421,2167597,8,2167660,0.063
action,2167660,2167861,8,2167969,0.108
action,2167969,2168104,8,2168158,0.054
action,2168158,2168384,8,2168484,0.1
action,2168484,2168806,8,2168949,0.143
action,2168949,2169206,8,2169793,0.587
action,2169793,2169914,8,2426783,256.869
action,2426783,2427023,10,2427312,0.289
action,2427312,2427646,10,2428385,0.739
action,2428385,2428753,10,2429168,0.415
action,2429168,2429529,10,2429886,0.357
action,2429886,2430604,10,2430834,0.23
action,2430834,2431104,10,2431478,0.374
action,2431478,2431826,10,2431991,0.165
action,2431991,2432160,10,2432214,0.054
action,2432214,2432342,10,2432473,0.131
action,2432473,2432607,10,2433446,0.839
action,2433446,2433760,10,2433887,0.127
action,2433887,2434105,10,2434213,0.108
action,2434213,2434484,10,2434625,0.141
action,2434625,2435015,10,2435512,0.497
action,2435512,2435705,10,2435917,0.212
action,2435917,2436135,10,2436239,0.104
action,2436239,2436559,10,2436921,0.362
action,2436921,2437414,10,2438329,0.915
action,2438329,2438560,10,2438688,0.128
action,2438688,2438826,10,2438903,0.077
action,2438903,2439191,10,2439308,0.117
action,2439308,2439493,10,2439588,0.095
action,2439588,2439670,10,2439815,0.145
action,2439815,2440004,10,2440377,0.373
action,2440377,2441061,10,2441549,0.488
action,2441549,2442277,10,2443394,1.117
action,2443394,2443566,10,2443689,0.123
action,2443689,2443869,10,2443939,0.07
action,2443939,2444187,10,2444269,0.082
action,2444269,2444617,10,2444747,0.13
action,2444747,2444866,10,2444922,0.056
action,2444922,2445003,10,2445382,0.379
action,2445382,2445903,10,2447161,1.258
action,2447161,2447552,10,2450640,3.088
action,2450640,2450878,10,2451137,0.259
action,2451137,2451390,10,2451982,0.592
action,2451982,2452861,10,2453168,0.307
action,2453168,2453703,10,2453891,0.188
action,2453891,2454173,10,2454517,0.344
action,2454517,2454886,10,2455242,0.356
action,2455242,2455851,10,2456165,0.314
action,2456165,2456483,10,2456563,0.08
action,2456563,2456819,10,2457015,0.196
action,2457015,2457389,10,2457502,0.113
action,2457502,2457776,10,2457847,0.071
action,2457847,2458375,10,2458427,0.052
action,2458427,2458673,10,2459130,0.457
action,2459130,2459469,10,2460199,0.73
action,2460199,2460500,10,2460590,0.09
action,2460590,2460862,10,2460991,0.129
action,2460991,2461277,10,2461819,0.542
action,2461819,2462183,10,2462960,0.777
action,2462960,2463447,10,2463608,0.161
action,2463608,2463938,10,2464383,0.445
action,2464383,2464927,10,2465086,0.159
action,2465086,2465455,10,2465559,0.104
action,2465559,2465997,10,2466110,0.113
action,2466110,2466457,10,2470147,3.69
action,2470147,2470636,10,2470815,0.179
action,2470815,2471303,10,2471648,0.345
action,2471648,2471710,10,2471774,0.064
action,2471774,2472253,10,2472432,0.179
action,2472432,2472659,10,2473958,1.299
action,2473958,2474263,10,2475418,1.155
action,2475418,2475848,10,2475997,0.149
action,2475997,2476253,10,2476419,0.166
action,2476419,2476656,10,2477347,0.691
action,2477347,2477788,10,2478401,0.613
action,2478401,2479046,10,2480087,1.041
action,2480087,2480330,10,2480471,0.141
action,2480471,2480765,10,2481180,0.415
action,2481180,2481492,10,2481581,0.089
action,2481581,2481813,10,2481990,0.177
action,2481990,2482279,10,2482358,0.079
action,2482358,2482656,10,2482755,0.099
action,2482755,2483102,10,2483625,0.523
action,2483625,2483766,10,2483949,0.183
action,2483949,2484278,10,2485546,1.268
action,2485546,2485967,10,2490316,4.349
action,2490316,2490804,10,2490999,0.195
action,2490999,2491142,10,2491230,0.088
action,2491230,2491319,10,2491422,0.103
action,2491422,2491576,10,2491702,0.126
action,2491702,2492008,10,2493792,1.784
action,2493792,2494056,10,2494217,0.161
action,2494217,2494462,10,2494772,0.31
action,2494772,2495439,10,2495541,0.102
action,2495541,2495664,10,2495742,0.078
action,2495742,2495938,10,2496063,0.125
action,2496063,2496183,10,2496239,0.056
action,2496239,2496946,10,2497921,0.975
action,2497921,2498086,10,2498150,0.064
action,2498150,2498645,10,2498757,0.112
action,2498757,2499107,10,2499808,0.701
action,2499808,2500012,10,2500890,0.878
action,2500890,2501321,10,2501427,0.106
action,2501427,2501606,10,2501734,0.128
action,2501734,2502092,10,2502187,0.095
action,2502187,2502617,10,2502761,0.144
action,2502761,2502937,10,2503047,0.11
action,2503047,2503293,10,2504189,0.896
action,2504189,2504529,10,2505012,0.483
action,2505012,2505352,10,2506507,1.155
action,2506507,2506983,10,2509995,3.012
action,2509995,2510412,10,2510507,0.095
action,2510507,2510701,10,2510788,0.087
action,2510788,2510860,10,2511809,0.949
action,2511809,2512027,10,2512225,0.198
action,2512225,2512413,10,2513279,0.866
action,2513279,2513811,10,2514294,0.483
action,2514294,2514874,10,2515246,0.372
action,2515246,2515896,10,2516047,0.151
action,2516047,2516326,10,2516424,0.098
action,2516424,2516553,10,2516674,0.121
action,2516674,2516732,10,2516674,-0.058
action,2516674,2516732,10,2516818,0.086
action,2516818,2517152,10,2517228,0.076
action,2517228,2517585,10,2517711,0.126
action,2517711,2517867,10,2518033,0.166
action,2518033,2518152,10,2518244,0.092
action,2518244,2518326,10,2518382,0.056
action,2518382,2518626,10,2519385,0.759
action,2519385,2519716,10,2520584,0.868
action,2520584,2520845,10,2520955,0.11
action,2520955,2521364,10,2521507,0.143
action,2521507,2521674,10,2522248,0.574
action,2522248,2522696,10,2522859,0.163
action,2522859,2523086,10,2523198,0.112
action,2523198,2523254,10,2531922,8.668
action,2531922,2532289,10,2532726,0.437
action,2532726,2533125,10,2533644,0.519
action,2533644,2533844,10,2534066,0.222
action,2534066,2534721,10,2534955,0.234
action,2534955,2535496,10,2535804,0.308
action,2535804,2535896,10,2535968,0.072
action,2535968,2536050,10,2536206,0.156
action,2536206,2536601,10,2536767,0.166
action,2536767,2537345,10,2537546,0.201
action,2537546,2537807,10,2537997,0.19
action,2537997,2538066,10,2538379,0.313
action,2538379,2538552,10,2538647,0.095
action,2538647,2538775,10,2539086,0.311
action,2539086,2539555,10,2539938,0.383
action,2539938,2540332,10,2540531,0.199
action,2540531,2540724,10,2540843,0.119
action,2540843,2540950,10,2542371,1.421
action,2542371,2542735,10,2543047,0.312
action,2543047,2543171,10,2543171,0
