CardMoveCommand,20,,3009,2228,3370,2588,0,0,446836,447713,446836,447713,3189.5,2408,-1,-1,S1
CardMoveCommand,20,,3035,1393,3396,1753,26,-835,468041,468667,468041,468667,3215.5,1573,-1,-1,S1
CardMoveCommand,21,,2109,2549,2345,2800,1408,1736,571398,574217,563036,565855,2227,2674.5,6,2,S1
CardMoveCommand,21,,2112,2502,2348,2753,1411,1689,575275,575687,566913,567325,2230,2627.5,6,2,S1
CardMoveCommand,20,,3067,1395,3428,1755,32,2,759325,759558,750963,751196,3247.5,1575,-1,-1,S1
CardMoveCommand,20,,3027,1375,3388,1735,-40,-20,762323,762620,753961,754258,3207.5,1555,-1,-1,S1
CardMoveCommand,20,,3027,1375,3388,1735,0,0,768558,768762,760196,760400,3207.5,1555,-1,-1,S1
CardMoveCommand,20,,3027,1375,3388,1735,0,0,769738,769986,761376,761624,3207.5,1555,-1,-1,S1
CardMoveCommand,20,,3002,1322,3363,1682,-25,-53,771991,772252,763629,763890,3182.5,1502,-1,-1,S1
CardMoveCommand,20,,2974,1324,3335,1684,-28,2,785883,786161,777521,777799,3154.5,1504,-1,-1,S1
CardMoveCommand,20,,2974,1324,3335,1684,-28,2,786520,786781,778158,778419,3154.5,1504,-1,-1,S1
CardMoveCommand,20,,2974,1324,3335,1684,0,0,794909,795316,786547,786954,3154.5,1504,-1,-1,S1
CardMoveCommand,20,,2974,1324,3335,1684,0,0,836589,838801,828227,830439,3154.5,1504,-1,-1,S1
CardMoveCommand,17,,2551,2573,2912,2724,0,0,848024,848356,839662,839994,2731.5,2648.5,-1,-1,S1
CardMoveCommand,15,,2664,2908,3025,3059,0,0,849367,849583,841005,841221,2844.5,2983.5,-1,-1,S1
CardMoveCommand,19,,2562,3177,2923,3328,-1,-17,849781,850299,841419,841937,2742.5,3252.5,-1,-1,S1
CardMoveCommand,15,,1590,610,1951,761,-1074,-2298,912809,917398,904447,909036,1770.5,685.5,0,1,S1
CardMoveCommand,12,,2571,901,2932,1052,0,15,919192,919514,910830,911152,2751.5,976.5,-1,-1,S1
CardMoveCommand,18,,1543,2873,1904,3024,0,0,939798,940027,931436,931665,1723.5,2948.5,7,1,S1
CardMoveCommand,28,,2103,595,2339,846,1426,-2463,989137,992877,962375,966115,2221,720.5,0,2,S1
CardMoveCommand,28,,2149,535,2385,786,1472,-2523,993842,994241,967080,967479,2267,660.5,0,2,S1
CardMoveCommand,13,,2553,1230,2914,1381,0,0,1167033,1168340,1140271,1141578,2733.5,1305.5,-1,-1,S1
CardMoveCommand,13,,2523,1229,2884,1380,-30,-1,1195827,1196234,1169065,1169472,2703.5,1304.5,-1,-1,S1
CardMoveCommand,13,,1584,2260,1945,2411,-939,1031,1206611,1209178,1179849,1182416,1764.5,2335.5,5,1,S1
CardMoveCommand,14,,1565,1216,1926,1367,0,0,1246443,1246734,1219681,1219972,1745.5,1291.5,2,1,S1
CardMoveCommand,27,,2086,1145,2322,1396,-12,-27,1250310,1250552,1223548,1223790,2204,1270.5,2,2,S1
CardMoveCommand,27,,2086,1145,2322,1396,0,0,1270174,1271431,1243412,1244669,2204,1270.5,2,2,S1
CardMoveCommand,11,,1517,2518,1878,2669,-4,-7,1298213,1298504,1271451,1271742,1697.5,2593.5,6,1,S1
CardMoveCommand,12,,2571,901,2932,1052,0,0,1342661,1343094,1315899,1316332,2751.5,976.5,-1,-1,S1
CardMoveCommand,30,,374,2299,610,2700,222,-163,2668379,2669993,1889221,1890835,492,2499.5,-1,-1,S1
CardMoveCommand,30,,374,2299,610,2700,222,-163,2673779,2674595,1894621,1895437,492,2499.5,-1,-1,S1
CardMoveCommand,12,,1456,1635,1817,1786,-123,84,2682793,2683398,1903635,1904240,1636.5,1710.5,3,1,S1
CardMoveCommand,12,,1592,1538,1953,1689,13,-13,2684319,2684826,1905161,1905668,1772.5,1613.5,3,1,S1
CardMoveCommand,27,,2142,1115,2378,1366,5,-27,2706752,2708032,1927594,1928874,2260,1240.5,2,2,S1
CardMoveCommand,22,,2154,1496,2390,1747,0,0,2708448,2708944,1929290,1929786,2272,1621.5,3,2,S1
CardMoveCommand,30,,2116,1749,2352,2150,-12,-15,2782416,2782509,2003258,2003351,2234,1949.5,4,2,S1
CardMoveCommand,25,,2168,2148,2404,2399,-16,-5,2783381,2784200,2004223,2005042,2286,2273.5,5,2,S1
CardMoveCommand,25,,2182,2218,2418,2469,-2,65,2784498,2784944,2005340,2005786,2300,2343.5,5,2,S1
CardMoveCommand,30,,2118,1746,2354,2147,2,-3,2785299,2785419,2006141,2006261,2236,1946.5,4,2,S1
CardMoveCommand,19,,2856,2727,3217,2878,0,0,2797915,2798489,2018757,2019331,3036.5,2802.5,-1,-1,S1
