marker,starttime,endtime,next_start,diff
action,877986,878296,880546,2.25
action,880546,880946,887746,6.8
action,887746,888046,897796,9.75
action,897796,904066,908356,4.29
action,908356,909556,913686,4.13
action,913686,915906,919156,3.25
action,919156,919526,922636,3.11
action,922636,924786,926226,1.44
action,926226,928696,930426,1.73
action,930426,933246,942106,8.86
action,942106,942456,943426,0.97
action,943426,944726,945946,1.22
action,945946,954166,957536,3.37
action,957536,958426,968976,10.55
action,968976,969376,976676,7.3
action,976676,979356,981896,2.54
action,981896,982256,984386,2.13
action,984386,984806,985946,1.14
action,985946,988076,990876,2.8
action,990876,991296,992496,1.2
action,992496,992926,995266,2.34
action,995266,995586,999956,4.37
action,999956,1001066,1003336,2.27
action,1003336,1005126,1009416,4.29
action,1009416,1012086,1013156,1.07
action,1013156,1016706,1020226,3.52
action,1020226,1022236,1023236,1
action,1023236,1023926,1026426,2.5
action,1026426,1049056,1049876,0.82
action,1049876,1050446,1052846,2.4
action,1052846,1053156,1055876,2.72
action,1055876,1056086,1058156,2.07
action,1058156,1059046,1060076,1.03
action,1060076,1068776,1070416,1.64
action,1070416,1073326,1076026,2.7
action,1076026,1078356,1080756,2.4
action,1080756,1083576,1090296,6.72
action,1090296,1091526,1093036,1.51
action,1093036,1093606,1097426,3.82
action,1097426,1097826,1112376,14.55
action,1112376,1115876,1119306,3.43
action,1119306,1119646,1127806,8.16
action,1127806,1129146,1130536,1.39
action,1130536,1136946,1137806,0.86
action,1137806,1138516,1141706,3.19
action,1141706,1143596,1146486,2.89
action,1146486,1147246,1148336,1.09
action,1148336,1151346,1152266,0.92
action,1152266,1160026,1161506,1.48
action,1161506,1164816,1166246,1.43
action,1166246,1166826,1172546,5.72
action,1172546,1176066,1177206,1.14
action,1177206,1184946,1186526,1.58
action,1186526,1189736,1190906,1.17
action,1190906,1192236,1196456,4.22
action,1196456,1200646,1201776,1.13
action,1201776,1206816,1207996,1.18
action,1207996,1210086,1212016,1.93
action,1212016,1213816,1216356,2.54
action,1216356,1216866,1218626,1.76
action,1218626,1219106,1225086,5.98
action,1225086,1225636,1226846,1.21
action,1226846,1236956,1238546,1.59
action,1238546,1238856,1264056,25.2
action,1264056,1266066,1267166,1.1
action,1267166,1268836,1274086,5.25
action,1274086,1274536,1297226,22.69
action,1297226,1299856,1302506,2.65
action,1302506,1302986,1308146,5.16
action,1308146,1314976,1315906,0.93
action,1315906,1316366,1317176,0.81
action,1317176,1320736,1321846,1.11
action,1321846,1323436,1325136,1.7
action,1325136,1331096,1333226,2.13
action,1333226,1335726,1337406,1.68
action,1337406,1338016,1344086,6.07
action,1344086,1348656,1349656,1
action,1349656,1359326,1360606,1.28
action,1360606,1367586,1368406,0.82
action,1368406,1377176,1382526,5.35
action,1382526,1382956,1387626,4.67
action,1387626,1388166,1397356,9.19
action,1397356,1397886,1401746,3.86
action,1401746,1407566,1409986,2.42
action,1409986,1411186,1415546,4.36
action,1415546,1423106,1424936,1.83
action,1424936,1427386,1428726,1.34
action,1428726,1432526,1434296,1.77
action,1434296,1436036,1439336,3.3
action,1439336,1441826,1444216,2.39
action,1444216,1444436,1447526,3.09
action,1447526,1447736,1448726,0.99
action,1448726,1449066,1452146,3.08
action,1452146,1452626,1457716,5.09
action,1457716,1461766,1462996,1.23
action,1462996,1466476,1470826,4.35
action,1470826,1478846,1481456,2.61
action,1481456,1481986,1486156,4.17
action,1486156,1486426,1492566,6.14
action,1492566,1498856,1505796,6.94
action,1505796,1506276,1507366,1.09
action,1507366,1514596,1515646,1.05
action,1515646,1516846,1518036,1.19
action,1518036,1529956,1530806,0.85
action,1530806,1535736,1536836,1.1
action,1536836,1539006,1539826,0.82
action,1539826,1543136,1543956,0.82
action,1543956,1547606,1579266,31.66
action,1579266,1581156,1583046,1.89
action,1583046,1584726,1586146,1.42
action,1586146,1586546,1618236,31.69
action,1618236,1618446,1619576,1.13
action,1619576,1619896,1623976,4.08
action,1623976,1629146,1632876,3.73
action,1632876,1633846,1639806,5.96
action,1639806,1643506,1644536,1.03
action,1644536,1646056,1648046,1.99
action,1648046,1648826,1651066,2.24
action,1651066,1655326,1656676,1.35
action,1656676,1660516,1661456,0.94
action,1661456,1662216,1682336,20.12
action,1682336,1682776,1697756,14.98
action,1697756,1699246,1700326,1.08
action,1700326,1701516,1793106,91.59
action,1793106,1793316,1805496,12.18
action,1805496,1808096,1808936,0.84
action,1808936,1810916,1812136,1.22
action,1812136,1814356,1819256,4.9
action,1819256,1820396,1821246,0.85
action,1821246,1844866,1845776,0.91
action,1845776,1847856,1849486,1.63
action,1849486,1854306,1855846,1.54
action,1855846,1861126,1863456,2.33
action,1863456,1865096,1867966,2.87
action,1867966,1871926,1873746,1.82
action,1873746,1874336,1888396,14.06
action,1888396,1888916,1892396,3.48
action,1892396,1892646,1894106,1.46
action,1894106,1894336,1898786,4.45
action,1898786,1899776,1903826,4.05
action,1903826,1906996,1908256,1.26
action,1908256,1909886,1912816,2.93
action,1912816,1914086,1918736,4.65
action,1918736,1918946,1920546,1.6
action,1920546,1921406,1924866,3.46
action,1924866,1925286,1937506,12.22
action,1937506,1938296,2092136,153.84
action,2092136,2094176,2095446,1.27
action,2095446,2096296,2100106,3.81
action,2100106,2104376,2108926,4.55
action,2108926,2110626,2114926,4.3
action,2114926,2117836,2119076,1.24
action,2119076,2120016,2120936,0.92
action,2120936,2125936,2147916,21.98
action,2147916,2149606,2172216,22.61
action,2172216,2172846,2177186,4.34
action,2177186,2177676,2182116,4.44
action,2182116,2183826,2186016,2.19
action,2186016,2186466,2190446,3.98
action,2190446,2190806,2193966,3.16
action,2193966,2194816,2202146,7.33
action,2202146,2203836,2209426,5.59
action,2209426,2209726,2212526,2.8
action,2212526,2214336,2215736,1.4
action,2215736,2230016,2231066,1.05
action,2231066,2239996,2241096,1.1
action,2241096,2245116,2246146,1.03
action,2246146,2258226,2259116,0.89
action,2259116,2270416,2271386,0.97
action,2271386,2273356,2274646,1.29
action,2274646,2277126,2278896,1.77
action,2278896,2284326,2285266,0.94
action,2285266,2288746,2290106,1.36
action,2290106,2291996,2294086,2.09
action,2294086,2295966,2296796,0.83
action,2296796,2301766,2303066,1.3
action,2303066,2307066,2332036,24.97
action,2332036,2332356,2335556,3.2
action,2335556,2342516,2344636,2.12
action,2344636,2346236,2347386,1.15
action,2347386,2349966,2351216,1.25
action,2351216,2352626,2361546,8.92
action,2361546,2364276,2367406,3.13
action,2367406,2367826,2374356,6.53
action,2374356,2374756,2378966,4.21
action,2378966,2379586,2384896,5.31
action,2384896,2386316,2390846,4.53
action,2390846,2398146,2399216,1.07
action,2399216,2399436,2405826,6.39
action,2405826,2406196,2407576,1.38
action,2407576,2409176,2413076,3.9
action,2413076,2418126,2544216,126.09
action,2544216,2547816,2549216,1.4
action,2549216,2550856,2551946,1.09
action,2551946,2561256,2567776,6.52
action,2567776,2568416,2572766,4.35
action,2572766,2573126,2574376,1.25
action,2574376,2585146,2586116,0.97
action,2586116,2586426,2587386,0.96
action,2587386,2587596,2589216,1.62
action,2589216,2589506,2619046,29.54
action,2619046,2619456,2637186,17.73
action,2637186,2639596,2642196,2.6
action,2642196,2643076,2645646,2.57
action,2645646,2648286,2649156,0.87
action,2649156,2649466,2650776,1.31
action,2650776,2651946,2664626,12.68
action,2664626,2665356,2672646,7.29
action,2672646,2680596,2681586,0.99
action,2681586,2685136,2686426,1.29
action,2686426,2687186,2692106,4.92
action,2692106,2693046,2694246,1.2
action,2694246,2695216,2702756,7.54
action,2702756,2704866,2705736,0.87
action,2705736,2713556,2714596,1.04
action,2714596,2716796,2717836,1.04
action,2717836,2720726,2721706,0.98
action,2721706,2732816,2734806,1.99
action,2734806,2735056,2735906,0.85
action,2735906,2736216,2749126,12.91
action,2749126,2752616,2755596,2.98
action,2755596,2761626,2774196,12.57
action,2774196,2774566,2776436,1.87
action,2776436,2776746,2782716,5.97
action,2782716,2784206,2795636,11.43
action,2795636,2797146,2799926,2.78
action,2799926,2802966,2803836,0.87
action,2803836,2805496,2810336,4.84
action,2810336,2814226,2816316,2.09
action,2816316,2818616,2826736,8.12
action,2826736,2829206,2830056,0.85
action,2830056,2830536,2833696,3.16
action,2833696,2836646,2838346,1.7
action,2838346,2843206,2844876,1.67
action,2844876,2846986,2854396,7.41
action,2854396,2855086,2876896,21.81
action,2876896,2882526,2883866,1.34
action,2883866,2884456,2885726,1.27
action,2885726,2887546,2889746,2.2
action,2889746,2897896,2898766,0.87
action,2898766,2906206,2907356,1.15
action,2907356,2911376,2912196,0.82
action,2912196,2917706,2921126,3.42
action,2921126,2924286,2926626,2.34
action,2926626,2927936,2931296,3.36
action,2931296,2931736,2934746,3.01
action,2934746,2935746,2936726,0.98
action,2936726,2943486,2950936,7.45
action,2950936,2957206,2959176,1.97
action,2959176,2963216,2964976,1.76
action,2964976,2967376,2971296,3.92
action,2971296,2974096,2976276,2.18
action,2976276,2981066,2984736,3.67
action,2984736,2984976,2987716,2.74
action,2987716,2990966,2991826,0.86
action,2991826,2994316,3001686,7.37
action,3001686,3008976,3010036,1.06
action,3010036,3018876,3022156,3.28
action,3022156,3024006,3027866,3.86
action,3027866,3028376,3029906,1.53
action,3029906,3030446,3031666,1.22
action,3031666,3033586,3034806,1.22
action,3034806,3036706,3039536,2.83
action,3039536,3039746,3048556,8.81
action,3048556,3050576,3051436,0.86
action,3051436,3056306,3057496,1.19
action,3057496,3058746,3063996,5.25
action,3063996,3064266,3065926,1.66
action,3065926,3076976,3078476,1.5
action,3078476,3082656,3085896,3.24
action,3085896,3086936,3088796,1.86
action,3088796,3091256,3097826,6.57
action,3097826,3099246,3101086,1.84
action,3101086,3105926,3107636,1.71
action,3107636,3109486,3111936,2.45
action,3111936,3114046,3115106,1.06
action,3115106,3118566,3123926,5.36
action,3123926,3127476,3129456,1.98
action,3129456,3130736,3133116,2.38
action,3133116,3136346,3138216,1.87
action,3138216,3145056,3145946,0.89
action,3145946,3146176,3164656,18.48
action,3164656,3165036,3172186,7.15
action,3172186,3173726,3174756,1.03
action,3174756,3191196,3192606,1.41
action,3192606,3198256,3207696,9.44
action,3207696,3209126,3210626,1.5
action,3210626,3211746,3214236,2.49
action,3214236,3218306,3220246,1.94
action,3220246,3220476,3224316,3.84
action,3224316,3224546,3230786,6.24
action,3230786,3243076,3246006,2.93
action,3246006,3247086,3248396,1.31
action,3248396,3248636,3251766,3.13
action,3251766,3259396,3260656,1.26
action,3260656,3262466,3264526,2.06
action,3264526,3266116,3283256,17.14
action,3283256,3284826,3285966,1.14
action,3285966,3287376,3288516,1.14
action,3288516,3288726,3289766,1.04
action,3289766,3293526,3294336,0.81
action,3294336,3295476,3298486,3.01
action,3298486,3298946,3299756,0.81
action,3299756,3299986,3310616,10.63
action,3310616,3312516,3313426,0.91
action,3313426,3314586,3315476,0.89
action,3315476,3317076,3319406,2.33
action,3319406,3321156,3328866,7.71
action,3328866,3330536,3416066,85.53
action,3416066,3416536,3426376,9.84
action,3426376,3426586,3428276,1.69
action,3428276,3429036,3432356,3.32
action,3432356,3435866,3439766,3.9
action,3439766,3440576,3441706,1.13
action,3441706,3442366,3445316,2.95
action,3445316,3446546,3468286,21.74
action,3468286,3468716,3475866,7.15
action,3475866,3478746,3483196,4.45
action,3483196,3487066,3489756,2.69
action,3489756,3493576,3509776,16.2
action,3509776,3511106,3521386,10.28
action,3521386,3521806,3540306,18.5
action,3540306,3543146,3544156,1.01
action,3544156,3544366,3545306,0.94
action,3545306,3546546,3548936,2.39
action,3548936,3550086,3553996,3.91
action,3553996,3554966,3560106,5.14
action,3560106,3560576,3561386,0.81
action,3561386,3563746,3569836,6.09
action,3569836,3570366,3586146,15.78
action,3586146,3588426,3593296,4.87
action,3593296,3595586,3597056,1.47
action,3597056,3598406,3600826,2.42
action,3600826,3603766,3607636,3.87
action,3607636,3610096,3617396,7.3
action,3617396,3618746,3619796,1.05
action,3619796,3620076,3621596,1.52
action,3621596,3626196,179082,-3447.114
action,179082,179772,180942,1.17
action,180942,189442,261472,72.03
action,261472,263922,265192,1.27
action,265192,265522,266382,0.86
action,266382,268612,269802,1.19
action,269802,274012,274922,0.91
action,274922,282052,283092,1.04
action,283092,286852,287752,0.9
action,287752,287962,291922,3.96
action,291922,292632,294362,1.73
action,294362,296272,299592,3.32
action,299592,300082,303082,3
action,303082,303442,304582,1.14
action,304582,312772,314052,1.28
action,314052,314882,317382,2.5
action,317382,321362,330562,9.2
action,330562,331772,341342,9.57
action,341342,342882,347272,4.39
action,347272,348062,349052,0.99
action,349052,349572,356422,6.85
action,356422,357742,367192,9.45
action,367192,367582,375972,8.39
action,375972,377902,379852,1.95
action,379852,381912,383182,1.27
action,383182,383712,386812,3.1
action,386812,388362,433592,45.23
action,433592,434422,435332,0.91
action,435332,435612,437782,2.17
action,437782,440062,440972,0.91
action,440972,453032,454052,1.02
action,454052,461532,463172,1.64
action,463172,463492,464332,0.84
action,464332,474082,475332,1.25
action,475332,475592,479502,3.91
action,479502,480542,483182,2.64
action,483182,483812,501562,17.75
action,501562,505212,506712,1.5
action,506712,507032,509692,2.66
action,509692,510882,515312,4.43
action,515312,515522,516542,1.02
action,516542,516952,524322,7.37
action,524322,538232,547262,9.03
action,547262,547862,574382,26.52
action,574382,577282,582002,4.72
action,582002,587582,589322,1.74
action,589322,592012,632202,40.19
action,632202,634462,635322,0.86
action,635322,645082,646712,1.63
action,646712,646982,649462,2.48
action,649462,656392,657202,0.81
action,657202,659502,661662,2.16
action,661662,661962,702732,40.77
action,702732,703452,707472,4.02
action,707472,708122,716872,8.75
action,716872,718362,721052,2.69
action,721052,723652,904069,180.417
action,904069,904759,905929,1.17
action,905929,914429,986459,72.03
action,986459,988909,990179,1.27
action,990179,990509,991369,0.86
action,991369,993599,994789,1.19
action,994789,998999,999909,0.91
action,999909,1007039,1008079,1.04
action,1008079,1011839,1012739,0.9
action,1012739,1012949,1016909,3.96
action,1016909,1017619,1019349,1.73
action,1019349,1021259,1024579,3.32
action,1024579,1025069,1028069,3
action,1028069,1028429,1029569,1.14
action,1029569,1037759,1039039,1.28
action,1039039,1039869,1042369,2.5
action,1042369,1046349,1055549,9.2
action,1055549,1056759,1066329,9.57
action,1066329,1067869,1072259,4.39
action,1072259,1073049,1074039,0.99
action,1074039,1074559,1081409,6.85
action,1081409,1082729,1092179,9.45
action,1092179,1092569,1100959,8.39
action,1100959,1102889,1104839,1.95
action,1104839,1106899,1108169,1.27
action,1108169,1108699,1111799,3.1
action,1111799,1113349,1158579,45.23
action,1158579,1159409,1160319,0.91
action,1160319,1160599,1162769,2.17
action,1162769,1165049,1165959,0.91
action,1165959,1178019,1179039,1.02
action,1179039,1186519,1188159,1.64
action,1188159,1188479,1189319,0.84
action,1189319,1199069,1200319,1.25
action,1200319,1200579,1204489,3.91
action,1204489,1205529,1208169,2.64
action,1208169,1208799,1226549,17.75
action,1226549,1230199,1231699,1.5
action,1231699,1232019,1234679,2.66
action,1234679,1235869,1240299,4.43
action,1240299,1240509,1241529,1.02
action,1241529,1241939,1249309,7.37
action,1249309,1263219,1272249,9.03
action,1272249,1272849,1299369,26.52
action,1299369,1302269,1306989,4.72
action,1306989,1312569,1314309,1.74
action,1314309,1316999,1357189,40.19
action,1357189,1359449,1360309,0.86
action,1360309,1370069,1371699,1.63
action,1371699,1371969,1374449,2.48
action,1374449,1381379,1382189,0.81
action,1382189,1384489,1386649,2.16
action,1386649,1386949,1427719,40.77
action,1427719,1428439,1432459,4.02
action,1432459,1433109,1441859,8.75
action,1441859,1443349,1446039,2.69
action,1446039,1448639,1448639,0
