marker,starttime,endtime,cardId,next_start,diff
action,1246914,1247262,6,1247548,0.286
action,1247548,1247897,6,1248036,0.139
action,1248036,1248154,6,1248209,0.055
action,1248209,1248506,6,1248879,0.373
action,1248879,1249175,6,1249281,0.106
action,1249281,1249597,6,1249683,0.086
action,1249683,1249978,6,1250118,0.14
action,1250118,1250273,6,1250358,0.085
action,1250358,1250758,6,1250866,0.108
action,1250866,1251242,6,1251368,0.126
action,1251368,1251647,6,1251835,0.188
action,1251835,1252161,6,1252279,0.118
action,1252279,1252518,6,1252636,0.118
action,1252636,1252722,6,1254352,1.63
action,1254352,1254761,6,1254848,0.087
action,1254848,1255112,6,1255215,0.103
action,1255215,1255466,6,1255578,0.112
action,1255578,1256056,6,1256145,0.089
action,1256145,1256446,6,1256537,0.091
action,1256537,1256632,6,1256734,0.102
action,1256734,1256807,6,1256893,0.086
action,1256893,1257218,6,1257338,0.12
action,1257338,1258067,6,1258437,0.37
action,1258437,1258563,6,1258686,0.123
action,1258686,1258794,6,1258945,0.151
action,1258945,1259337,6,1260561,1.224
action,1260561,1260810,6,1260908,0.098
action,1260908,1261196,6,1261303,0.107
action,1261303,1261440,6,1261543,0.103
action,1261543,1261637,6,1261703,0.066
action,1261703,1261957,6,1262068,0.111
action,1262068,1262360,6,1262480,0.12
action,1262480,1262890,6,1406276,143.386
action,1406276,1406748,-1,1408720,1.972
action,1408720,1408736,-1,1553442,144.706
action,1553442,1553625,7,1553723,0.098
action,1553723,1553932,7,1554078,0.146
action,1554078,1554426,7,1554522,0.096
action,1554522,1554673,7,1554766,0.093
action,1554766,1554862,7,1554953,0.091
action,1554953,1555103,7,1555512,0.409
action,1555512,1555907,7,1556018,0.111
action,1556018,1556292,7,1556415,0.123
action,1556415,1556659,7,1556763,0.104
action,1556763,1557100,7,1557178,0.078
action,1557178,1557630,7,1557753,0.123
action,1557753,1558008,7,1558101,0.093
action,1558101,1558392,7,1558568,0.176
action,1558568,1558746,7,1558846,0.1
action,1558846,1559327,7,1559457,0.13
action,1559457,1560121,7,1560240,0.119
action,1560240,1560319,7,1563526,3.207
action,1563526,1564003,7,1564532,0.529
action,1564532,1564646,7,1564780,0.134
action,1564780,1564928,7,1570765,5.837
action,1570765,1570845,7,1570887,0.042
action,1570887,1571170,7,1571292,0.122
action,1571292,1571431,7,1571531,0.1
action,1571531,1571812,7,1571967,0.155
action,1571967,1572171,7,1572273,0.102
action,1572273,1572364,7,1572462,0.098
action,1572462,1573026,7,1573310,0.284
action,1573310,1573760,7,1573879,0.119
action,1573879,1574281,7,1574382,0.101
action,1574382,1574827,7,1574927,0.1
action,1574927,1575234,7,1575373,0.139
action,1575373,1575692,7,1575802,0.11
action,1575802,1575967,7,1576030,0.063
action,1576030,1576131,7,1576489,0.358
action,1576489,1577282,7,1577912,0.63
action,1577912,1578298,7,1578379,0.081
action,1578379,1578653,7,1578752,0.099
action,1578752,1579088,7,1579194,0.106
action,1579194,1579400,7,1579509,0.109
action,1579509,1579609,7,1579716,0.107
action,1579716,1580002,7,1591005,11.003
action,1591005,1591188,7,1591261,0.073
action,1591261,1591330,7,1591463,0.133
action,1591463,1591774,7,1591954,0.18
action,1591954,1592364,7,1592470,0.106
action,1592470,1592615,7,1592731,0.116
action,1592731,1592821,7,1592918,0.097
action,1592918,1593129,7,1593219,0.09
action,1593219,1593380,7,1593516,0.136
action,1593516,1593602,7,1593682,0.08
action,1593682,1593977,7,1594113,0.136
action,1594113,1594263,7,1594374,0.111
action,1594374,1594496,7,1594557,0.061
action,1594557,1594898,7,1595001,0.103
action,1595001,1595164,7,1595249,0.085
action,1595249,1595597,7,1596293,0.696
action,1596293,1596734,7,1596827,0.093
action,1596827,1597302,7,1601554,4.252
action,1601554,1602181,7,1602326,0.145
action,1602326,1602658,7,1602780,0.122
action,1602780,1602880,7,1602983,0.103
action,1602983,1603243,7,1603370,0.127
action,1603370,1603546,7,1603662,0.116
action,1603662,1603797,7,1603976,0.179
action,1603976,1604297,7,1604421,0.124
action,1604421,1604688,7,1604831,0.143
action,1604831,1605172,7,1605303,0.131
action,1605303,1605473,7,1605637,0.164
action,1605637,1605688,7,1605822,0.134
action,1605822,1606148,7,1607076,0.928
action,1607076,1607377,7,1607513,0.136
action,1607513,1607605,7,1607688,0.083
action,1607688,1608103,7,1608210,0.107
action,1608210,1608383,7,1608474,0.091
action,1608474,1608678,7,1608726,0.048
action,1608726,1609002,7,1609093,0.091
action,1609093,1609371,7,1610040,0.669
action,1610040,1610492,7,1610588,0.096
action,1610588,1610946,7,1611213,0.267
action,1611213,1611564,7,1611614,0.05
action,1611614,1611922,7,1612004,0.082
action,1612004,1612583,7,1612763,0.18
action,1612763,1613140,7,1613363,0.223
action,1613363,1613707,7,1613789,0.082
action,1613789,1616933,7,2205749,588.816
action,2205749,2207439,11,2208280,0.841
action,2208280,2209011,11,2308743,99.732
action,2308743,2308953,9,2309028,0.075
action,2309028,2309277,9,2309379,0.102
action,2309379,2309721,9,2309814,0.093
action,2309814,2310112,9,2310514,0.402
action,2310514,2311203,9,2311301,0.098
action,2311301,2311495,9,2311581,0.086
action,2311581,2311681,9,2311755,0.074
action,2311755,2311928,9,2312015,0.087
action,2312015,2312160,9,2312259,0.099
action,2312259,2312376,9,2312487,0.111
action,2312487,2312560,9,2312642,0.082
action,2312642,2313263,9,2313381,0.118
action,2313381,2313490,9,2313562,0.072
action,2313562,2313828,9,2314215,0.387
action,2314215,2315252,9,2315300,0.048
action,2315300,2315464,9,2315535,0.071
action,2315535,2315637,9,2315732,0.095
action,2315732,2315789,9,2315890,0.101
action,2315890,2316590,9,2316658,0.068
action,2316658,2316765,9,2316853,0.088
action,2316853,2317548,9,2320368,2.82
action,2320368,2320888,9,2320993,0.105
action,2320993,2321123,9,2321229,0.106
action,2321229,2321501,9,2321633,0.132
action,2321633,2321878,9,2321963,0.085
action,2321963,2322300,9,2322448,0.148
action,2322448,2322642,9,2322709,0.067
action,2322709,2322788,9,2322858,0.07
action,2322858,2323488,9,2323913,0.425
action,2323913,2324093,9,2324226,0.133
action,2324226,2324507,9,2324603,0.096
action,2324603,2324722,9,2324814,0.092
action,2324814,2324897,9,2324975,0.078
action,2324975,2325325,9,2325423,0.098
action,2325423,2325728,9,2325837,0.109
action,2325837,2326219,9,2326311,0.092
action,2326311,2326617,9,2326672,0.055
action,2326672,2326963,9,2327046,0.083
action,2327046,2329224,9,2423880,94.656
action,2423880,2424217,9,2424348,0.131
action,2424348,2424501,9,2424577,0.076
action,2424577,2424670,9,2424753,0.083
action,2424753,2425053,9,2425141,0.088
action,2425141,2425285,9,2425376,0.091
action,2425376,2425665,9,2425746,0.081
action,2425746,2426780,9,2427219,0.439
action,2427219,2427408,9,2427527,0.119
action,2427527,2427843,9,2428443,0.6
action,2428443,2428672,9,2428782,0.11
action,2428782,2428978,9,2429039,0.061
action,2429039,2429492,9,2429612,0.12
action,2429612,2429896,9,2430455,0.559
action,2430455,2430597,9,2430703,0.106
action,2430703,2430835,9,2430880,0.045
action,2430880,2431167,9,2431308,0.141
action,2431308,2431781,9,2431933,0.152
action,2431933,2432265,9,2432358,0.093
action,2432358,2432556,9,2432732,0.176
action,2432732,2432782,9,2432824,0.042
action,2432824,2433128,9,2434877,1.749
action,2434877,2435037,9,2435269,0.232
action,2435269,2435493,9,2435571,0.078
action,2435571,2435772,9,2435873,0.101
action,2435873,2435995,9,2436066,0.071
action,2436066,2436367,9,2436509,0.142
action,2436509,2436663,9,2436720,0.057
action,2436720,2436922,9,2437101,0.179
action,2437101,2437250,9,2437796,0.546
action,2437796,2437946,9,2438058,0.112
action,2438058,2438309,9,2438399,0.09
action,2438399,2439304,9,2439452,0.148
action,2439452,2439624,9,2439666,0.042
action,2439666,2439964,9,2440068,0.104
action,2440068,2440178,9,2448881,8.703
action,2448881,2449152,9,2449234,0.082
action,2449234,2449636,9,2449715,0.079
action,2449715,2450019,9,2450118,0.099
action,2450118,2450417,9,2450511,0.094
action,2450511,2450649,9,2450755,0.106
action,2450755,2451120,9,2451257,0.137
action,2451257,2451375,9,2451445,0.07
action,2451445,2451667,9,2451822,0.155
action,2451822,2452047,9,2453925,1.878
action,2453925,2454678,9,2454940,0.262
action,2454940,2455173,9,2455368,0.195
action,2455368,2455487,9,2455643,0.156
action,2455643,2456059,9,2456280,0.221
action,2456280,2456762,9,2456898,0.136
action,2456898,2457267,9,2458189,0.922
action,2458189,2458941,9,2461750,2.809
action,2461750,2462176,9,2462328,0.152
action,2462328,2462661,9,2462727,0.066
action,2462727,2464404,9,2466021,1.617
action,2466021,2466901,9,2467002,0.101
action,2467002,2467293,9,2467360,0.067
action,2467360,2467653,9,2467736,0.083
action,2467736,2467911,9,2468004,0.093
action,2468004,2468245,9,2468328,0.083
action,2468328,2468493,9,2468558,0.065
action,2468558,2469188,9,2469283,0.095
action,2469283,2469689,9,2469836,0.147
action,2469836,2469916,9,2469980,0.064
action,2469980,2470139,9,2470230,0.091
action,2470230,2470327,9,2470649,0.322
action,2470649,2471060,9,2471187,0.127
action,2471187,2471801,9,2471992,0.191
action,2471992,2472469,9,2472606,0.137
action,2472606,2472860,9,2472994,0.134
action,2472994,2473078,9,2473192,0.114
action,2473192,2473298,9,2473424,0.126
action,2473424,2474275,9,2475622,1.347
action,2475622,2475852,9,2476046,0.194
action,2476046,2477791,9,2478009,0.218
action,2478009,2478055,9,2504145,26.09
action,2504145,2504412,11,2504835,0.423
action,2504835,2505163,11,2505384,0.221
action,2505384,2505821,11,2506018,0.197
action,2506018,2506292,11,2506425,0.133
action,2506425,2506761,11,2506836,0.075
action,2506836,2507275,11,2508924,1.649
action,2508924,2509603,11,2511636,2.033
action,2511636,2512018,11,2512196,0.178
action,2512196,2513094,11,2519371,6.277
action,2519371,2519419,11,2519508,0.089
action,2519508,2519848,11,2520040,0.192
action,2520040,2520200,11,2520251,0.051
action,2520251,2520469,11,2520560,0.091
action,2520560,2520949,11,2521044,0.095
action,2521044,2521189,11,2521234,0.045
action,2521234,2521551,11,2521746,0.195
action,2521746,2521951,11,2522251,0.3
action,2522251,2522315,11,2522463,0.148
action,2522463,2522722,11,2530918,8.196
action,2530918,2531362,11,2531607,0.245
action,2531607,2531785,11,2532172,0.387
action,2532172,2532822,11,2532950,0.128
action,2532950,2533160,11,2533349,0.189
action,2533349,2533607,11,2533688,0.081
action,2533688,2534102,11,2534214,0.112
action,2534214,2534663,11,2535093,0.43
action,2535093,2535341,11,2535463,0.122
action,2535463,2535925,11,2537372,1.447
action,2537372,2537741,11,2537864,0.123
action,2537864,2538833,11,2539018,0.185
action,2539018,2539186,11,2539233,0.047
action,2539233,2539604,11,2539883,0.279
action,2539883,2540481,11,2541373,0.892
action,2541373,2541741,11,2542055,0.314
action,2542055,2542337,11,2542503,0.166
action,2542503,2542740,11,2542913,0.173
action,2542913,2543149,11,2543409,0.26
action,2543409,2543971,11,2544041,0.07
action,2544041,2544192,11,2544294,0.102
action,2544294,2544449,11,2544518,0.069
action,2544518,2544735,11,2544890,0.155
action,2544890,2545073,11,2545111,0.038
action,2545111,2545430,11,2591298,45.868
action,2591298,2591548,11,2591648,0.1
action,2591648,2591771,11,2591828,0.057
action,2591828,2592153,11,2592254,0.101
action,2592254,2592569,11,2594025,1.456
action,2594025,2595284,11,2595701,0.417
action,2595701,2596140,11,2596403,0.263
action,2596403,2596560,11,2596675,0.115
action,2596675,2596829,11,2596903,0.074
action,2596903,2597276,11,2597378,0.102
action,2597378,2597719,11,2597848,0.129
action,2597848,2598097,11,2598148,0.051
action,2598148,2598436,11,2598509,0.073
action,2598509,2598694,11,2598746,0.052
action,2598746,2598941,11,2599034,0.093
action,2599034,2599350,11,2599456,0.106
action,2599456,2599718,11,2600938,1.22
action,2600938,2601362,11,2601485,0.123
action,2601485,2601891,11,2601992,0.101
action,2601992,2602202,11,2602298,0.096
action,2602298,2602457,11,2603466,1.009
action,2603466,2604001,11,2604093,0.092
action,2604093,2604280,11,2604369,0.089
action,2604369,2604479,11,2604583,0.104
action,2604583,2604888,11,2605006,0.118
action,2605006,2605328,11,2605466,0.138
action,2605466,2605737,11,2605816,0.079
action,2605816,2606189,11,2606776,0.587
action,2606776,2607134,11,2607234,0.1
action,2607234,2607647,11,2607753,0.106
action,2607753,2608013,11,2608106,0.093
action,2608106,2608233,11,2608602,0.369
action,2608602,2609032,11,2609110,0.078
action,2609110,2609436,11,2609826,0.39
action,2609826,2610025,11,2610101,0.076
action,2610101,2610243,11,2610351,0.108
action,2610351,2610696,11,2610750,0.054
action,2610750,2611104,11,2612019,0.915
action,2612019,2612734,11,2612767,0.033
action,2612767,2612973,11,2613039,0.066
action,2613039,2613432,11,2613551,0.119
action,2613551,2614095,11,2614173,0.078
action,2614173,2614275,11,2614367,0.092
action,2614367,2614811,11,2614890,0.079
action,2614890,2615073,11,2615744,0.671
action,2615744,2616138,11,2616316,0.178
action,2616316,2616723,11,2616812,0.089
action,2616812,2617213,11,2617334,0.121
action,2617334,2617736,11,2617860,0.124
action,2617860,2617992,11,2732350,114.358
action,2732350,2732919,12,2733230,0.311
action,2733230,2733763,12,2733959,0.196
action,2733959,2734462,12,2759649,25.187
action,2759649,2760059,13,2760228,0.169
action,2760228,2760561,13,2760720,0.159
action,2760720,2761159,13,2762516,1.357
action,2762516,2762857,13,2762948,0.091
action,2762948,2763303,13,2763392,0.089
action,2763392,2763560,13,2763691,0.131
action,2763691,2763859,13,2763993,0.134
action,2763993,2764096,13,2764412,0.316
action,2764412,2764836,13,2765005,0.169
action,2765005,2765243,13,2765329,0.086
action,2765329,2765518,13,2765687,0.169
action,2765687,2766136,13,2766252,0.116
action,2766252,2766632,13,2766712,0.08
action,2766712,2767048,13,2767145,0.097
action,2767145,2767404,13,2767512,0.108
action,2767512,2767685,13,2767792,0.107
action,2767792,2768060,13,2768130,0.07
action,2768130,2768198,13,2768312,0.114
action,2768312,2768565,13,2768648,0.083
action,2768648,2768987,13,2769529,0.542
action,2769529,2770197,13,2770294,0.097
action,2770294,2770509,13,2770565,0.056
action,2770565,2770657,13,2770759,0.102
action,2770759,2771122,13,2771199,0.077
action,2771199,2771533,13,2771619,0.086
action,2771619,2771788,13,2771882,0.094
action,2771882,2772028,13,2772066,0.038
action,2772066,2772416,13,2772497,0.081
action,2772497,2773062,13,2777750,4.688
action,2777750,2778725,14,2778853,0.128
action,2778853,2779172,14,2779272,0.1
action,2779272,2779671,14,2779847,0.176
action,2779847,2780051,14,2780152,0.101
action,2780152,2780368,14,2780464,0.096
action,2780464,2780887,14,2780977,0.09
action,2780977,2781158,14,2781225,0.067
action,2781225,2781371,14,2781456,0.085
action,2781456,2781677,14,2781747,0.07
action,2781747,2781874,14,2782042,0.168
action,2782042,2782573,14,2782678,0.105
action,2782678,2782811,14,2782929,0.118
action,2782929,2783007,14,2783104,0.097
action,2783104,2783420,14,2783515,0.095
action,2783515,2783793,14,2783865,0.072
action,2783865,2784003,14,2784098,0.095
action,2784098,2784210,14,2784280,0.07
action,2784280,2784604,14,2784695,0.091
action,2784695,2785268,14,2786325,1.057
action,2786325,2786532,14,2786640,0.108
action,2786640,2786776,14,2786869,0.093
action,2786869,2787006,14,2787116,0.11
action,2787116,2787377,14,2787479,0.102
action,2787479,2787623,14,2787719,0.096
action,2787719,2787845,14,2787961,0.116
action,2787961,2788108,14,2788223,0.115
action,2788223,2788424,14,2788535,0.111
action,2788535,2788867,14,2788994,0.127
action,2788994,2789156,14,2789237,0.081
action,2789237,2789343,14,2789494,0.151
action,2789494,2789659,14,2789783,0.124
action,2789783,2789896,14,2790044,0.148
action,2790044,2790262,14,2790363,0.101
action,2790363,2790637,14,2790738,0.101
action,2790738,2790914,14,2790997,0.083
action,2790997,2791137,14,2791273,0.136
action,2791273,2791417,14,2791494,0.077
action,2791494,2791613,14,2791687,0.074
action,2791687,2791993,14,2792073,0.08
action,2792073,2792617,14,2792753,0.136
action,2792753,2792920,14,2847765,54.845
action,2847765,2848251,12,2848412,0.161
action,2848412,2848634,12,2848873,0.239
action,2848873,2849116,12,2849356,0.24
action,2849356,2849534,12,2849660,0.126
action,2849660,2850075,12,2850677,0.602
action,2850677,2851027,12,2851154,0.127
action,2851154,2851485,12,2851564,0.079
action,2851564,2851747,12,2851845,0.098
action,2851845,2851950,12,2852703,0.753
action,2852703,2853076,12,2853155,0.079
action,2853155,2853519,12,2853566,0.047
action,2853566,2853723,12,2853828,0.105
action,2853828,2854175,12,2854286,0.111
action,2854286,2854463,12,2854557,0.094
action,2854557,2854765,12,2854854,0.089
action,2854854,2855048,12,2855195,0.147
action,2855195,2855246,12,2855318,0.072
action,2855318,2855653,12,2855741,0.088
action,2855741,2856117,12,2862312,6.195
action,2862312,2862759,14,2862877,0.118
action,2862877,2863103,14,2863220,0.117
action,2863220,2863442,14,2863575,0.133
action,2863575,2863811,14,2863892,0.081
action,2863892,2864301,14,2864386,0.085
action,2864386,2864719,14,2864812,0.093
action,2864812,2865172,14,2865268,0.096
action,2865268,2865659,14,2865953,0.294
action,2865953,2866298,14,2866394,0.096
action,2866394,2866777,14,2866834,0.057
action,2866834,2867011,14,2867082,0.071
action,2867082,2867442,14,2867533,0.091
action,2867533,2867776,14,2867877,0.101
action,2867877,2868110,14,2868211,0.101
action,2868211,2868292,14,2868426,0.134
action,2868426,2868705,14,2868812,0.107
action,2868812,2869177,14,3037277,168.1
action,3037277,3037430,15,3037565,0.135
action,3037565,3037706,15,3037816,0.11
action,3037816,3038070,15,3038210,0.14
action,3038210,3038417,15,3038512,0.095
action,3038512,3038657,15,3038720,0.063
action,3038720,3038853,15,3038956,0.103
action,3038956,3039064,15,3039148,0.084
action,3039148,3039446,15,3039535,0.089
action,3039535,3039882,15,3040531,0.649
action,3040531,3040707,15,3040818,0.111
action,3040818,3041003,15,3041092,0.089
action,3041092,3041353,15,3041428,0.075
action,3041428,3041532,15,3041647,0.115
action,3041647,3041755,15,3041837,0.082
action,3041837,3042101,15,3042224,0.123
action,3042224,3042331,15,3042434,0.103
action,3042434,3042512,15,3042640,0.128
action,3042640,3042863,15,3042968,0.105
action,3042968,3043119,15,3043214,0.095
action,3043214,3043330,15,3044219,0.889
action,3044219,3044391,15,3044482,0.091
action,3044482,3044588,15,3044667,0.079
action,3044667,3045055,15,3045145,0.09
action,3045145,3045305,15,3045400,0.095
action,3045400,3045520,15,3045607,0.087
action,3045607,3045926,15,3046038,0.112
action,3046038,3046221,15,3046287,0.066
action,3046287,3046408,15,3046516,0.108
action,3046516,3046829,15,3046904,0.075
action,3046904,3047228,15,3047348,0.12
action,3047348,3047520,15,3047597,0.077
action,3047597,3047816,15,3047904,0.088
action,3047904,3048242,15,3048400,0.158
action,3048400,3048473,15,3048589,0.116
action,3048589,3048866,15,3048970,0.104
action,3048970,3049295,15,3051129,1.834
action,3051129,3051638,15,3056298,4.66
action,3056298,3056839,15,3058255,1.416
action,3058255,3058660,15,3058706,0.046
action,3058706,3059004,15,3059077,0.073
action,3059077,3059200,15,3059283,0.083
action,3059283,3059351,15,3059460,0.109
action,3059460,3059964,15,3060093,0.129
action,3060093,3060305,15,3060440,0.135
action,3060440,3060525,15,3060627,0.102
action,3060627,3060926,15,3061562,0.636
action,3061562,3061812,15,3061892,0.08
action,3061892,3062056,15,3062132,0.076
action,3062132,3062447,15,3062546,0.099
action,3062546,3062856,15,3062989,0.133
action,3062989,3063298,15,3063371,0.073
action,3063371,3063641,15,3063770,0.129
action,3063770,3063944,15,3064012,0.068
action,3064012,3064331,15,3064415,0.084
action,3064415,3064602,15,3064700,0.098
action,3064700,3064905,15,3065000,0.095
action,3065000,3065141,15,3065169,0.028
action,3065169,3065424,15,3065487,0.063
action,3065487,3065890,15,3065985,0.095
action,3065985,3066041,15,3148572,82.531
action,3148572,3148796,16,3149086,0.29
action,3149086,3149295,16,3149493,0.198
action,3149493,3149812,16,3150856,1.044
action,3150856,3151455,16,3151545,0.09
action,3151545,3151815,16,3151952,0.137
action,3151952,3152060,16,3152140,0.08
action,3152140,3152278,16,3152416,0.138
action,3152416,3152511,16,3152611,0.1
action,3152611,3152737,16,3152785,0.048
action,3152785,3153122,16,3153191,0.069
action,3153191,3153482,16,3153860,0.378
action,3153860,3154314,16,3154422,0.108
action,3154422,3154732,16,3154811,0.079
action,3154811,3155299,16,3155399,0.1
action,3155399,3155573,16,3155675,0.102
action,3155675,3156004,16,3158454,2.45
action,3158454,3158839,16,3158942,0.103
action,3158942,3159227,16,3159287,0.06
action,3159287,3159360,16,3159992,0.632
action,3159992,3160166,16,3160272,0.106
action,3160272,3160381,16,3160452,0.071
action,3160452,3160774,16,3160862,0.088
action,3160862,3161187,16,3161839,0.652
action,3161839,3162091,16,3162171,0.08
action,3162171,3162328,16,3162419,0.091
action,3162419,3162493,16,3162589,0.096
action,3162589,3162969,16,3163021,0.052
action,3163021,3163341,16,3163633,0.292
action,3163633,3163851,16,3163948,0.097
action,3163948,3164043,16,3164095,0.052
action,3164095,3164840,16,3164937,0.097
action,3164937,3165197,16,3165262,0.065
action,3165262,3165380,16,3267452,102.072
action,3267452,3267895,17,3267966,0.071
action,3267966,3268075,17,3268161,0.086
action,3268161,3268305,17,3268423,0.118
action,3268423,3268619,17,3268773,0.154
action,3268773,3268926,17,3269047,0.121
action,3269047,3269227,17,3269331,0.104
action,3269331,3269476,17,3269597,0.121
action,3269597,3269917,17,3270012,0.095
action,3270012,3270383,17,3270467,0.084
action,3270467,3271045,17,3271487,0.442
action,3271487,3272036,17,3272147,0.111
action,3272147,3272352,17,3272437,0.085
action,3272437,3272562,17,3272652,0.09
action,3272652,3272816,17,3272943,0.127
action,3272943,3273038,17,3273087,0.049
action,3273087,3273384,17,3273468,0.084
action,3273468,3273898,17,3274020,0.122
action,3274020,3274142,17,3274739,0.597
action,3274739,3275007,17,3275083,0.076
action,3275083,3275411,17,3275485,0.074
action,3275485,3275653,17,3275815,0.162
action,3275815,3276554,17,3276628,0.074
action,3276628,3277247,17,3277324,0.077
action,3277324,3277583,17,3277642,0.059
action,3277642,3277738,17,3277822,0.084
action,3277822,3278365,17,3278562,0.197
action,3278562,3278969,17,3279054,0.085
action,3279054,3279424,17,3279616,0.192
action,3279616,3279810,17,3279966,0.156
action,3279966,3280440,17,3280565,0.125
action,3280565,3280775,17,3280846,0.071
action,3280846,3281386,17,3281553,0.167
action,3281553,3282373,17,1247117,-2035.256
action,1247117,1247465,6,1247751,0.286
action,1247751,1248100,6,1248239,0.139
action,1248239,1248357,6,1248412,0.055
action,1248412,1248709,6,1249082,0.373
action,1249082,1249378,6,1249484,0.106
action,1249484,1249800,6,1249886,0.086
action,1249886,1250181,6,1250321,0.14
action,1250321,1250476,6,1250561,0.085
action,1250561,1250961,6,1251069,0.108
action,1251069,1251445,6,1251571,0.126
action,1251571,1251850,6,1252038,0.188
action,1252038,1252364,6,1252482,0.118
action,1252482,1252721,6,1252839,0.118
action,1252839,1252925,6,1254555,1.63
action,1254555,1254964,6,1255051,0.087
action,1255051,1255315,6,1255418,0.103
action,1255418,1255669,6,1255781,0.112
action,1255781,1256259,6,1256348,0.089
action,1256348,1256649,6,1256740,0.091
action,1256740,1256835,6,1256937,0.102
action,1256937,1257010,6,1257096,0.086
action,1257096,1257421,6,1257541,0.12
action,1257541,1258270,6,1258640,0.37
action,1258640,1258766,6,1258889,0.123
action,1258889,1258997,6,1259148,0.151
action,1259148,1259540,6,1260764,1.224
action,1260764,1261013,6,1261111,0.098
action,1261111,1261399,6,1261506,0.107
action,1261506,1261643,6,1261746,0.103
action,1261746,1261840,6,1261906,0.066
action,1261906,1262160,6,1262271,0.111
action,1262271,1262563,6,1262683,0.12
action,1262683,1263093,6,1406479,143.386
action,1406479,1406951,-1,1408923,1.972
action,1408923,1408939,-1,1553645,144.706
action,1553645,1553828,7,1553926,0.098
action,1553926,1554135,7,1554281,0.146
action,1554281,1554629,7,1554725,0.096
action,1554725,1554876,7,1554969,0.093
action,1554969,1555065,7,1555156,0.091
action,1555156,1555306,7,1555715,0.409
action,1555715,1556110,7,1556221,0.111
action,1556221,1556495,7,1556618,0.123
action,1556618,1556862,7,1556966,0.104
action,1556966,1557303,7,1557381,0.078
action,1557381,1557833,7,1557956,0.123
action,1557956,1558211,7,1558304,0.093
action,1558304,1558595,7,1558771,0.176
action,1558771,1558949,7,1559049,0.1
action,1559049,1559530,7,1559660,0.13
action,1559660,1560324,7,1560443,0.119
action,1560443,1560522,7,1563729,3.207
action,1563729,1564206,7,1564735,0.529
action,1564735,1564849,7,1564983,0.134
action,1564983,1565131,7,1570968,5.837
action,1570968,1571048,7,1571090,0.042
action,1571090,1571373,7,1571495,0.122
action,1571495,1571634,7,1571734,0.1
action,1571734,1572015,7,1572170,0.155
action,1572170,1572374,7,1572476,0.102
action,1572476,1572567,7,1572665,0.098
action,1572665,1573229,7,1573513,0.284
action,1573513,1573963,7,1574082,0.119
action,1574082,1574484,7,1574585,0.101
action,1574585,1575030,7,1575130,0.1
action,1575130,1575437,7,1575576,0.139
action,1575576,1575895,7,1576005,0.11
action,1576005,1576170,7,1576233,0.063
action,1576233,1576334,7,1576692,0.358
action,1576692,1577485,7,1578115,0.63
action,1578115,1578501,7,1578582,0.081
action,1578582,1578856,7,1578955,0.099
action,1578955,1579291,7,1579397,0.106
action,1579397,1579603,7,1579712,0.109
action,1579712,1579812,7,1579919,0.107
action,1579919,1580205,7,1591208,11.003
action,1591208,1591391,7,1591464,0.073
action,1591464,1591533,7,1591666,0.133
action,1591666,1591977,7,1592157,0.18
action,1592157,1592567,7,1592673,0.106
action,1592673,1592818,7,1592934,0.116
action,1592934,1593024,7,1593121,0.097
action,1593121,1593332,7,1593422,0.09
action,1593422,1593583,7,1593719,0.136
action,1593719,1593805,7,1593885,0.08
action,1593885,1594180,7,1594316,0.136
action,1594316,1594466,7,1594577,0.111
action,1594577,1594699,7,1594760,0.061
action,1594760,1595101,7,1595204,0.103
action,1595204,1595367,7,1595452,0.085
action,1595452,1595800,7,1596496,0.696
action,1596496,1596937,7,1597030,0.093
action,1597030,1597505,7,1601757,4.252
action,1601757,1602384,7,1602529,0.145
action,1602529,1602861,7,1602983,0.122
action,1602983,1603083,7,1603186,0.103
action,1603186,1603446,7,1603573,0.127
action,1603573,1603749,7,1603865,0.116
action,1603865,1604000,7,1604179,0.179
action,1604179,1604500,7,1604624,0.124
action,1604624,1604891,7,1605034,0.143
action,1605034,1605375,7,1605506,0.131
action,1605506,1605676,7,1605840,0.164
action,1605840,1605891,7,1606025,0.134
action,1606025,1606351,7,1607279,0.928
action,1607279,1607580,7,1607716,0.136
action,1607716,1607808,7,1607891,0.083
action,1607891,1608306,7,1608413,0.107
action,1608413,1608586,7,1608677,0.091
action,1608677,1608881,7,1608929,0.048
action,1608929,1609205,7,1609296,0.091
action,1609296,1609574,7,1610243,0.669
action,1610243,1610695,7,1610791,0.096
action,1610791,1611149,7,1611416,0.267
action,1611416,1611767,7,1611817,0.05
action,1611817,1612125,7,1612207,0.082
action,1612207,1612786,7,1612966,0.18
action,1612966,1613343,7,1613566,0.223
action,1613566,1613910,7,1613992,0.082
action,1613992,1617136,7,2205952,588.816
action,2205952,2207642,11,2208483,0.841
action,2208483,2209214,11,2308946,99.732
action,2308946,2309156,9,2309231,0.075
action,2309231,2309480,9,2309582,0.102
action,2309582,2309924,9,2310017,0.093
action,2310017,2310315,9,2310717,0.402
action,2310717,2311406,9,2311504,0.098
action,2311504,2311698,9,2311784,0.086
action,2311784,2311884,9,2311958,0.074
action,2311958,2312131,9,2312218,0.087
action,2312218,2312363,9,2312462,0.099
action,2312462,2312579,9,2312690,0.111
action,2312690,2312763,9,2312845,0.082
action,2312845,2313466,9,2313584,0.118
action,2313584,2313693,9,2313765,0.072
action,2313765,2314031,9,2314418,0.387
action,2314418,2315455,9,2315503,0.048
action,2315503,2315667,9,2315738,0.071
action,2315738,2315840,9,2315935,0.095
action,2315935,2315992,9,2316093,0.101
action,2316093,2316793,9,2316861,0.068
action,2316861,2316968,9,2317056,0.088
action,2317056,2317751,9,2320571,2.82
action,2320571,2321091,9,2321196,0.105
action,2321196,2321326,9,2321432,0.106
action,2321432,2321704,9,2321836,0.132
action,2321836,2322081,9,2322166,0.085
action,2322166,2322503,9,2322651,0.148
action,2322651,2322845,9,2322912,0.067
action,2322912,2322991,9,2323061,0.07
action,2323061,2323691,9,2324116,0.425
action,2324116,2324296,9,2324429,0.133
action,2324429,2324710,9,2324806,0.096
action,2324806,2324925,9,2325017,0.092
action,2325017,2325100,9,2325178,0.078
action,2325178,2325528,9,2325626,0.098
action,2325626,2325931,9,2326040,0.109
action,2326040,2326422,9,2326514,0.092
action,2326514,2326820,9,2326875,0.055
action,2326875,2327166,9,2327249,0.083
action,2327249,2329427,9,2424083,94.656
action,2424083,2424420,9,2424551,0.131
action,2424551,2424704,9,2424780,0.076
action,2424780,2424873,9,2424956,0.083
action,2424956,2425256,9,2425344,0.088
action,2425344,2425488,9,2425579,0.091
action,2425579,2425868,9,2425949,0.081
action,2425949,2426983,9,2427422,0.439
action,2427422,2427611,9,2427730,0.119
action,2427730,2428046,9,2428646,0.6
action,2428646,2428875,9,2428985,0.11
action,2428985,2429181,9,2429242,0.061
action,2429242,2429695,9,2429815,0.12
action,2429815,2430099,9,2430658,0.559
action,2430658,2430800,9,2430906,0.106
action,2430906,2431038,9,2431083,0.045
action,2431083,2431370,9,2431511,0.141
action,2431511,2431984,9,2432136,0.152
action,2432136,2432468,9,2432561,0.093
action,2432561,2432759,9,2432935,0.176
action,2432935,2432985,9,2433027,0.042
action,2433027,2433331,9,2435080,1.749
action,2435080,2435240,9,2435472,0.232
action,2435472,2435696,9,2435774,0.078
action,2435774,2435975,9,2436076,0.101
action,2436076,2436198,9,2436269,0.071
action,2436269,2436570,9,2436712,0.142
action,2436712,2436866,9,2436923,0.057
action,2436923,2437125,9,2437304,0.179
action,2437304,2437453,9,2437999,0.546
action,2437999,2438149,9,2438261,0.112
action,2438261,2438512,9,2438602,0.09
action,2438602,2439507,9,2439655,0.148
action,2439655,2439827,9,2439869,0.042
action,2439869,2440167,9,2440271,0.104
action,2440271,2440381,9,2449084,8.703
action,2449084,2449355,9,2449437,0.082
action,2449437,2449839,9,2449918,0.079
action,2449918,2450222,9,2450321,0.099
action,2450321,2450620,9,2450714,0.094
action,2450714,2450852,9,2450958,0.106
action,2450958,2451323,9,2451460,0.137
action,2451460,2451578,9,2451648,0.07
action,2451648,2451870,9,2452025,0.155
action,2452025,2452250,9,2454128,1.878
action,2454128,2454881,9,2455143,0.262
action,2455143,2455376,9,2455571,0.195
action,2455571,2455690,9,2455846,0.156
action,2455846,2456262,9,2456483,0.221
action,2456483,2456965,9,2457101,0.136
action,2457101,2457470,9,2458392,0.922
action,2458392,2459144,9,2461953,2.809
action,2461953,2462379,9,2462531,0.152
action,2462531,2462864,9,2462930,0.066
action,2462930,2464607,9,2466224,1.617
action,2466224,2467104,9,2467205,0.101
action,2467205,2467496,9,2467563,0.067
action,2467563,2467856,9,2467939,0.083
action,2467939,2468114,9,2468207,0.093
action,2468207,2468448,9,2468531,0.083
action,2468531,2468696,9,2468761,0.065
action,2468761,2469391,9,2469486,0.095
action,2469486,2469892,9,2470039,0.147
action,2470039,2470119,9,2470183,0.064
action,2470183,2470342,9,2470433,0.091
action,2470433,2470530,9,2470852,0.322
action,2470852,2471263,9,2471390,0.127
action,2471390,2472004,9,2472195,0.191
action,2472195,2472672,9,2472809,0.137
action,2472809,2473063,9,2473197,0.134
action,2473197,2473281,9,2473395,0.114
action,2473395,2473501,9,2473627,0.126
action,2473627,2474478,9,2475825,1.347
action,2475825,2476055,9,2476249,0.194
action,2476249,2477994,9,2478212,0.218
action,2478212,2478258,9,2504348,26.09
action,2504348,2504615,11,2505038,0.423
action,2505038,2505366,11,2505587,0.221
action,2505587,2506024,11,2506221,0.197
action,2506221,2506495,11,2506628,0.133
action,2506628,2506964,11,2507039,0.075
action,2507039,2507478,11,2509127,1.649
action,2509127,2509806,11,2511839,2.033
action,2511839,2512221,11,2512399,0.178
action,2512399,2513297,11,2519574,6.277
action,2519574,2519622,11,2519711,0.089
action,2519711,2520051,11,2520243,0.192
action,2520243,2520403,11,2520454,0.051
action,2520454,2520672,11,2520763,0.091
action,2520763,2521152,11,2521247,0.095
action,2521247,2521392,11,2521437,0.045
action,2521437,2521754,11,2521949,0.195
action,2521949,2522154,11,2522454,0.3
action,2522454,2522518,11,2522666,0.148
action,2522666,2522925,11,2531121,8.196
action,2531121,2531565,11,2531810,0.245
action,2531810,2531988,11,2532375,0.387
action,2532375,2533025,11,2533153,0.128
action,2533153,2533363,11,2533552,0.189
action,2533552,2533810,11,2533891,0.081
action,2533891,2534305,11,2534417,0.112
action,2534417,2534866,11,2535296,0.43
action,2535296,2535544,11,2535666,0.122
action,2535666,2536128,11,2537575,1.447
action,2537575,2537944,11,2538067,0.123
action,2538067,2539036,11,2539221,0.185
action,2539221,2539389,11,2539436,0.047
action,2539436,2539807,11,2540086,0.279
action,2540086,2540684,11,2541576,0.892
action,2541576,2541944,11,2542258,0.314
action,2542258,2542540,11,2542706,0.166
action,2542706,2542943,11,2543116,0.173
action,2543116,2543352,11,2543612,0.26
action,2543612,2544174,11,2544244,0.07
action,2544244,2544395,11,2544497,0.102
action,2544497,2544652,11,2544721,0.069
action,2544721,2544938,11,2545093,0.155
action,2545093,2545276,11,2545314,0.038
action,2545314,2545633,11,2591501,45.868
action,2591501,2591751,11,2591851,0.1
action,2591851,2591974,11,2592031,0.057
action,2592031,2592356,11,2592457,0.101
action,2592457,2592772,11,2594228,1.456
action,2594228,2595487,11,2595904,0.417
action,2595904,2596343,11,2596606,0.263
action,2596606,2596763,11,2596878,0.115
action,2596878,2597032,11,2597106,0.074
action,2597106,2597479,11,2597581,0.102
action,2597581,2597922,11,2598051,0.129
action,2598051,2598300,11,2598351,0.051
action,2598351,2598639,11,2598712,0.073
action,2598712,2598897,11,2598949,0.052
action,2598949,2599144,11,2599237,0.093
action,2599237,2599553,11,2599659,0.106
action,2599659,2599921,11,2601141,1.22
action,2601141,2601565,11,2601688,0.123
action,2601688,2602094,11,2602195,0.101
action,2602195,2602405,11,2602501,0.096
action,2602501,2602660,11,2603669,1.009
action,2603669,2604204,11,2604296,0.092
action,2604296,2604483,11,2604572,0.089
action,2604572,2604682,11,2604786,0.104
action,2604786,2605091,11,2605209,0.118
action,2605209,2605531,11,2605669,0.138
action,2605669,2605940,11,2606019,0.079
action,2606019,2606392,11,2606979,0.587
action,2606979,2607337,11,2607437,0.1
action,2607437,2607850,11,2607956,0.106
action,2607956,2608216,11,2608309,0.093
action,2608309,2608436,11,2608805,0.369
action,2608805,2609235,11,2609313,0.078
action,2609313,2609639,11,2610029,0.39
action,2610029,2610228,11,2610304,0.076
action,2610304,2610446,11,2610554,0.108
action,2610554,2610899,11,2610953,0.054
action,2610953,2611307,11,2612222,0.915
action,2612222,2612937,11,2612970,0.033
action,2612970,2613176,11,2613242,0.066
action,2613242,2613635,11,2613754,0.119
action,2613754,2614298,11,2614376,0.078
action,2614376,2614478,11,2614570,0.092
action,2614570,2615014,11,2615093,0.079
action,2615093,2615276,11,2615947,0.671
action,2615947,2616341,11,2616519,0.178
action,2616519,2616926,11,2617015,0.089
action,2617015,2617416,11,2617537,0.121
action,2617537,2617939,11,2618063,0.124
action,2618063,2618195,11,2732553,114.358
action,2732553,2733122,12,2733433,0.311
action,2733433,2733966,12,2734162,0.196
action,2734162,2734665,12,2759852,25.187
action,2759852,2760262,13,2760431,0.169
action,2760431,2760764,13,2760923,0.159
action,2760923,2761362,13,2762719,1.357
action,2762719,2763060,13,2763151,0.091
action,2763151,2763506,13,2763595,0.089
action,2763595,2763763,13,2763894,0.131
action,2763894,2764062,13,2764196,0.134
action,2764196,2764299,13,2764615,0.316
action,2764615,2765039,13,2765208,0.169
action,2765208,2765446,13,2765532,0.086
action,2765532,2765721,13,2765890,0.169
action,2765890,2766339,13,2766455,0.116
action,2766455,2766835,13,2766915,0.08
action,2766915,2767251,13,2767348,0.097
action,2767348,2767607,13,2767715,0.108
action,2767715,2767888,13,2767995,0.107
action,2767995,2768263,13,2768333,0.07
action,2768333,2768401,13,2768515,0.114
action,2768515,2768768,13,2768851,0.083
action,2768851,2769190,13,2769732,0.542
action,2769732,2770400,13,2770497,0.097
action,2770497,2770712,13,2770768,0.056
action,2770768,2770860,13,2770962,0.102
action,2770962,2771325,13,2771402,0.077
action,2771402,2771736,13,2771822,0.086
action,2771822,2771991,13,2772085,0.094
action,2772085,2772231,13,2772269,0.038
action,2772269,2772619,13,2772700,0.081
action,2772700,2773265,13,2777953,4.688
action,2777953,2778928,14,2779056,0.128
action,2779056,2779375,14,2779475,0.1
action,2779475,2779874,14,2780050,0.176
action,2780050,2780254,14,2780355,0.101
action,2780355,2780571,14,2780667,0.096
action,2780667,2781090,14,2781180,0.09
action,2781180,2781361,14,2781428,0.067
action,2781428,2781574,14,2781659,0.085
action,2781659,2781880,14,2781950,0.07
action,2781950,2782077,14,2782245,0.168
action,2782245,2782776,14,2782881,0.105
action,2782881,2783014,14,2783132,0.118
action,2783132,2783210,14,2783307,0.097
action,2783307,2783623,14,2783718,0.095
action,2783718,2783996,14,2784068,0.072
action,2784068,2784206,14,2784301,0.095
action,2784301,2784413,14,2784483,0.07
action,2784483,2784807,14,2784898,0.091
action,2784898,2785471,14,2786528,1.057
action,2786528,2786735,14,2786843,0.108
action,2786843,2786979,14,2787072,0.093
action,2787072,2787209,14,2787319,0.11
action,2787319,2787580,14,2787682,0.102
action,2787682,2787826,14,2787922,0.096
action,2787922,2788048,14,2788164,0.116
action,2788164,2788311,14,2788426,0.115
action,2788426,2788627,14,2788738,0.111
action,2788738,2789070,14,2789197,0.127
action,2789197,2789359,14,2789440,0.081
action,2789440,2789546,14,2789697,0.151
action,2789697,2789862,14,2789986,0.124
action,2789986,2790099,14,2790247,0.148
action,2790247,2790465,14,2790566,0.101
action,2790566,2790840,14,2790941,0.101
action,2790941,2791117,14,2791200,0.083
action,2791200,2791340,14,2791476,0.136
action,2791476,2791620,14,2791697,0.077
action,2791697,2791816,14,2791890,0.074
action,2791890,2792196,14,2792276,0.08
action,2792276,2792820,14,2792956,0.136
action,2792956,2793123,14,2847968,54.845
action,2847968,2848454,12,2848615,0.161
action,2848615,2848837,12,2849076,0.239
action,2849076,2849319,12,2849559,0.24
action,2849559,2849737,12,2849863,0.126
action,2849863,2850278,12,2850880,0.602
action,2850880,2851230,12,2851357,0.127
action,2851357,2851688,12,2851767,0.079
action,2851767,2851950,12,2852048,0.098
action,2852048,2852153,12,2852906,0.753
action,2852906,2853279,12,2853358,0.079
action,2853358,2853722,12,2853769,0.047
action,2853769,2853926,12,2854031,0.105
action,2854031,2854378,12,2854489,0.111
action,2854489,2854666,12,2854760,0.094
action,2854760,2854968,12,2855057,0.089
action,2855057,2855251,12,2855398,0.147
action,2855398,2855449,12,2855521,0.072
action,2855521,2855856,12,2855944,0.088
action,2855944,2856320,12,2862515,6.195
action,2862515,2862962,14,2863080,0.118
action,2863080,2863306,14,2863423,0.117
action,2863423,2863645,14,2863778,0.133
action,2863778,2864014,14,2864095,0.081
action,2864095,2864504,14,2864589,0.085
action,2864589,2864922,14,2865015,0.093
action,2865015,2865375,14,2865471,0.096
action,2865471,2865862,14,2866156,0.294
action,2866156,2866501,14,2866597,0.096
action,2866597,2866980,14,2867037,0.057
action,2867037,2867214,14,2867285,0.071
action,2867285,2867645,14,2867736,0.091
action,2867736,2867979,14,2868080,0.101
action,2868080,2868313,14,2868414,0.101
action,2868414,2868495,14,2868629,0.134
action,2868629,2868908,14,2869015,0.107
action,2869015,2869380,14,3037480,168.1
action,3037480,3037633,15,3037768,0.135
action,3037768,3037909,15,3038019,0.11
action,3038019,3038273,15,3038413,0.14
action,3038413,3038620,15,3038715,0.095
action,3038715,3038860,15,3038923,0.063
action,3038923,3039056,15,3039159,0.103
action,3039159,3039267,15,3039351,0.084
action,3039351,3039649,15,3039738,0.089
action,3039738,3040085,15,3040734,0.649
action,3040734,3040910,15,3041021,0.111
action,3041021,3041206,15,3041295,0.089
action,3041295,3041556,15,3041631,0.075
action,3041631,3041735,15,3041850,0.115
action,3041850,3041958,15,3042040,0.082
action,3042040,3042304,15,3042427,0.123
action,3042427,3042534,15,3042637,0.103
action,3042637,3042715,15,3042843,0.128
action,3042843,3043066,15,3043171,0.105
action,3043171,3043322,15,3043417,0.095
action,3043417,3043533,15,3044422,0.889
action,3044422,3044594,15,3044685,0.091
action,3044685,3044791,15,3044870,0.079
action,3044870,3045258,15,3045348,0.09
action,3045348,3045508,15,3045603,0.095
action,3045603,3045723,15,3045810,0.087
action,3045810,3046129,15,3046241,0.112
action,3046241,3046424,15,3046490,0.066
action,3046490,3046611,15,3046719,0.108
action,3046719,3047032,15,3047107,0.075
action,3047107,3047431,15,3047551,0.12
action,3047551,3047723,15,3047800,0.077
action,3047800,3048019,15,3048107,0.088
action,3048107,3048445,15,3048603,0.158
action,3048603,3048676,15,3048792,0.116
action,3048792,3049069,15,3049173,0.104
action,3049173,3049498,15,3051332,1.834
action,3051332,3051841,15,3056501,4.66
action,3056501,3057042,15,3058458,1.416
action,3058458,3058863,15,3058909,0.046
action,3058909,3059207,15,3059280,0.073
action,3059280,3059403,15,3059486,0.083
action,3059486,3059554,15,3059663,0.109
action,3059663,3060167,15,3060296,0.129
action,3060296,3060508,15,3060643,0.135
action,3060643,3060728,15,3060830,0.102
action,3060830,3061129,15,3061765,0.636
action,3061765,3062015,15,3062095,0.08
action,3062095,3062259,15,3062335,0.076
action,3062335,3062650,15,3062749,0.099
action,3062749,3063059,15,3063192,0.133
action,3063192,3063501,15,3063574,0.073
action,3063574,3063844,15,3063973,0.129
action,3063973,3064147,15,3064215,0.068
action,3064215,3064534,15,3064618,0.084
action,3064618,3064805,15,3064903,0.098
action,3064903,3065108,15,3065203,0.095
action,3065203,3065344,15,3065372,0.028
action,3065372,3065627,15,3065690,0.063
action,3065690,3066093,15,3066188,0.095
action,3066188,3066244,15,3148775,82.531
action,3148775,3148999,16,3149289,0.29
action,3149289,3149498,16,3149696,0.198
action,3149696,3150015,16,3151059,1.044
action,3151059,3151658,16,3151748,0.09
action,3151748,3152018,16,3152155,0.137
action,3152155,3152263,16,3152343,0.08
action,3152343,3152481,16,3152619,0.138
action,3152619,3152714,16,3152814,0.1
action,3152814,3152940,16,3152988,0.048
action,3152988,3153325,16,3153394,0.069
action,3153394,3153685,16,3154063,0.378
action,3154063,3154517,16,3154625,0.108
action,3154625,3154935,16,3155014,0.079
action,3155014,3155502,16,3155602,0.1
action,3155602,3155776,16,3155878,0.102
action,3155878,3156207,16,3158657,2.45
action,3158657,3159042,16,3159145,0.103
action,3159145,3159430,16,3159490,0.06
action,3159490,3159563,16,3160195,0.632
action,3160195,3160369,16,3160475,0.106
action,3160475,3160584,16,3160655,0.071
action,3160655,3160977,16,3161065,0.088
action,3161065,3161390,16,3162042,0.652
action,3162042,3162294,16,3162374,0.08
action,3162374,3162531,16,3162622,0.091
action,3162622,3162696,16,3162792,0.096
action,3162792,3163172,16,3163224,0.052
action,3163224,3163544,16,3163836,0.292
action,3163836,3164054,16,3164151,0.097
action,3164151,3164246,16,3164298,0.052
action,3164298,3165043,16,3165140,0.097
action,3165140,3165400,16,3165465,0.065
action,3165465,3165583,16,3267655,102.072
action,3267655,3268098,17,3268169,0.071
action,3268169,3268278,17,3268364,0.086
action,3268364,3268508,17,3268626,0.118
action,3268626,3268822,17,3268976,0.154
action,3268976,3269129,17,3269250,0.121
action,3269250,3269430,17,3269534,0.104
action,3269534,3269679,17,3269800,0.121
action,3269800,3270120,17,3270215,0.095
action,3270215,3270586,17,3270670,0.084
action,3270670,3271248,17,3271690,0.442
action,3271690,3272239,17,3272350,0.111
action,3272350,3272555,17,3272640,0.085
action,3272640,3272765,17,3272855,0.09
action,3272855,3273019,17,3273146,0.127
action,3273146,3273241,17,3273290,0.049
action,3273290,3273587,17,3273671,0.084
action,3273671,3274101,17,3274223,0.122
action,3274223,3274345,17,3274942,0.597
action,3274942,3275210,17,3275286,0.076
action,3275286,3275614,17,3275688,0.074
action,3275688,3275856,17,3276018,0.162
action,3276018,3276757,17,3276831,0.074
action,3276831,3277450,17,3277527,0.077
action,3277527,3277786,17,3277845,0.059
action,3277845,3277941,17,3278025,0.084
action,3278025,3278568,17,3278765,0.197
action,3278765,3279172,17,3279257,0.085
action,3279257,3279627,17,3279819,0.192
action,3279819,3280013,17,3280169,0.156
action,3280169,3280643,17,3280768,0.125
action,3280768,3280978,17,3281049,0.071
action,3281049,3281589,17,3281756,0.167
action,3281756,3282576,17,203159,-3079.417
action,203159,203755,2,332229,128.474
action,332229,332481,2,332639,0.158
action,332639,332999,2,333057,0.058
action,333057,333218,2,333299,0.081
action,333299,333395,2,335325,1.93
action,335325,335723,2,335864,0.141
action,335864,336132,2,336264,0.132
action,336264,336340,2,336492,0.152
action,336492,336876,2,336985,0.109
action,336985,337215,2,337345,0.13
action,337345,337435,2,369407,31.972
action,369407,369673,2,370021,0.348
action,370021,370374,2,370497,0.123
action,370497,370686,2,370791,0.105
action,370791,370904,2,371613,0.709
action,371613,372062,2,372264,0.202
action,372264,372558,2,372677,0.119
action,372677,372782,2,373047,0.265
action,373047,373725,2,373808,0.083
action,373808,373891,2,377386,3.495
action,377386,377623,2,377800,0.177
action,377800,378180,2,378282,0.102
action,378282,378628,2,378709,0.081
action,378709,379137,2,379309,0.172
action,379309,379649,2,390113,10.464
action,390113,390530,2,390862,0.332
action,390862,391143,2,391244,0.101
action,391244,391487,2,391665,0.178
action,391665,392171,2,392240,0.069
action,392240,392551,2,392671,0.12
action,392671,392837,2,392934,0.097
action,392934,393028,2,393126,0.098
action,393126,393494,2,393608,0.114
action,393608,394326,2,394433,0.107
action,394433,394724,2,394905,0.181
action,394905,395310,2,395470,0.16
action,395470,395847,2,396170,0.323
action,396170,396699,2,485328,88.629
action,485328,485531,2,486020,0.489
action,486020,486200,2,486342,0.142
action,486342,486519,2,486905,0.386
action,486905,487038,2,487162,0.124
action,487162,487238,2,487339,0.101
action,487339,487815,2,487910,0.095
action,487910,488217,2,488547,0.33
action,488547,488700,2,488792,0.092
action,488792,489105,2,489582,0.477
action,489582,489963,2,490072,0.109
action,490072,490352,2,490466,0.114
action,490466,490634,2,490716,0.082
action,490716,490976,2,491090,0.114
action,491090,491243,2,491339,0.096
action,491339,491439,2,491505,0.066
action,491505,492126,2,492231,0.105
action,492231,492387,2,492450,0.063
action,492450,492821,2,541518,48.697
action,541518,541667,2,541780,0.113
action,541780,541853,2,542017,0.164
action,542017,542318,2,542581,0.263
action,542581,542754,2,542985,0.231
action,542985,543719,2,556974,13.255
action,556974,557216,2,557490,0.274
action,557490,557948,2,558107,0.159
action,558107,558385,2,558490,0.105
action,558490,558759,2,558866,0.107
action,558866,559388,2,559466,0.078
action,559466,559744,2,559847,0.103
action,559847,559982,2,560078,0.096
action,560078,560174,2,560269,0.095
action,560269,560524,2,560613,0.089
action,560613,561282,2,561397,0.115
action,561397,561626,2,563636,2.01
action,563636,563806,2,563865,0.059
action,563865,563908,2,564006,0.098
action,564006,564071,2,565530,1.459
action,565530,565773,2,565989,0.216
action,565989,566190,2,566474,0.284
action,566474,566639,2,566763,0.124
action,566763,566934,2,567305,0.371
action,567305,567740,2,568041,0.301
action,568041,568179,2,568265,0.086
action,568265,568392,2,569566,1.174
action,569566,569743,2,569939,0.196
action,569939,570294,2,571101,0.807
action,571101,571308,2,571392,0.084
action,571392,571607,2,571881,0.274
action,571881,572189,2,572319,0.13
action,572319,572892,2,593733,20.841
action,593733,594073,2,594326,0.253
action,594326,594659,2,594759,0.1
action,594759,595093,2,595221,0.128
action,595221,595364,2,595475,0.111
action,595475,595556,2,595630,0.074
action,595630,595834,2,595922,0.088
action,595922,596020,2,596108,0.088
action,596108,596478,2,596529,0.051
action,596529,596683,2,596742,0.059
action,596742,596878,2,596967,0.089
action,596967,597174,2,597282,0.108
action,597282,597352,2,597470,0.118
action,597470,597830,2,597929,0.099
action,597929,598382,2,600295,1.913
action,600295,600831,2,601088,0.257
action,601088,601281,2,601392,0.111
action,601392,601562,2,602216,0.654
action,602216,602583,2,602773,0.19
action,602773,603418,2,603842,0.424
action,603842,604044,2,604142,0.098
action,604142,604260,2,604359,0.099
action,604359,604493,2,604600,0.107
action,604600,604972,2,605066,0.094
action,605066,605604,2,605786,0.182
action,605786,605948,2,606078,0.13
action,606078,606601,2,607298,0.697
action,607298,607434,2,610694,3.26
action,610694,611162,2,611329,0.167
action,611329,611558,2,611664,0.106
action,611664,611875,2,612002,0.127
action,612002,612202,2,612317,0.115
action,612317,612469,2,613368,0.899
action,613368,613793,2,613917,0.124
action,613917,614342,2,614511,0.169
action,614511,614697,2,614774,0.077
action,614774,614948,2,615792,0.844
action,615792,616159,2,616361,0.202
action,616361,616622,2,616742,0.12
action,616742,616882,2,618411,1.529
action,618411,618886,2,619043,0.157
action,619043,619285,2,619390,0.105
action,619390,619633,2,620652,1.019
action,620652,620845,2,620972,0.127
action,620972,621145,2,621436,0.291
action,621436,621789,2,621919,0.13
action,621919,622342,2,622508,0.166
action,622508,622655,2,622738,0.083
action,622738,622852,2,623283,0.431
action,623283,623612,2,623786,0.174
action,623786,624301,2,625043,0.742
action,625043,625974,2,627250,1.276
action,627250,627697,2,628444,0.747
action,628444,629004,2,629302,0.298
action,629302,629490,2,629583,0.093
action,629583,629782,2,630382,0.6
action,630382,630756,2,630899,0.143
action,630899,631069,2,639836,8.767
action,639836,639924,2,640025,0.101
action,640025,640087,2,640201,0.114
action,640201,640250,2,640527,0.277
action,640527,640765,2,640872,0.107
action,640872,641079,2,641405,0.326
action,641405,641586,2,641691,0.105
action,641691,641823,2,642949,1.126
action,642949,643133,2,643269,0.136
action,643269,643594,2,643717,0.123
action,643717,643801,2,643916,0.115
action,643916,644118,2,644193,0.075
action,644193,644336,2,644442,0.106
action,644442,644554,2,644659,0.105
action,644659,644735,2,644900,0.165
action,644900,645272,2,203159,-442.113
action,203159,203755,2,332229,128.474
action,332229,332481,2,332639,0.158
action,332639,332999,2,333057,0.058
action,333057,333218,2,333299,0.081
action,333299,333395,2,335325,1.93
action,335325,335723,2,335864,0.141
action,335864,336132,2,336264,0.132
action,336264,336340,2,336492,0.152
action,336492,336876,2,336985,0.109
action,336985,337215,2,337345,0.13
action,337345,337435,2,369407,31.972
action,369407,369673,2,370021,0.348
action,370021,370374,2,370497,0.123
action,370497,370686,2,370791,0.105
action,370791,370904,2,371613,0.709
action,371613,372062,2,372264,0.202
action,372264,372558,2,372677,0.119
action,372677,372782,2,373047,0.265
action,373047,373725,2,373808,0.083
action,373808,373891,2,377386,3.495
action,377386,377623,2,377800,0.177
action,377800,378180,2,378282,0.102
action,378282,378628,2,378709,0.081
action,378709,379137,2,379309,0.172
action,379309,379649,2,390113,10.464
action,390113,390530,2,390862,0.332
action,390862,391143,2,391244,0.101
action,391244,391487,2,391665,0.178
action,391665,392171,2,392240,0.069
action,392240,392551,2,392671,0.12
action,392671,392837,2,392934,0.097
action,392934,393028,2,393126,0.098
action,393126,393494,2,393608,0.114
action,393608,394326,2,394433,0.107
action,394433,394724,2,394905,0.181
action,394905,395310,2,395470,0.16
action,395470,395847,2,396170,0.323
action,396170,396699,2,485328,88.629
action,485328,485531,2,486020,0.489
action,486020,486200,2,486342,0.142
action,486342,486519,2,486905,0.386
action,486905,487038,2,487162,0.124
action,487162,487238,2,487339,0.101
action,487339,487815,2,487910,0.095
action,487910,488217,2,488547,0.33
action,488547,488700,2,488792,0.092
action,488792,489105,2,489582,0.477
action,489582,489963,2,490072,0.109
action,490072,490352,2,490466,0.114
action,490466,490634,2,490716,0.082
action,490716,490976,2,491090,0.114
action,491090,491243,2,491339,0.096
action,491339,491439,2,491505,0.066
action,491505,492126,2,492231,0.105
action,492231,492387,2,492450,0.063
action,492450,492821,2,541518,48.697
action,541518,541667,2,541780,0.113
action,541780,541853,2,542017,0.164
action,542017,542318,2,542581,0.263
action,542581,542754,2,542985,0.231
action,542985,543719,2,556974,13.255
action,556974,557216,2,557490,0.274
action,557490,557948,2,558107,0.159
action,558107,558385,2,558490,0.105
action,558490,558759,2,558866,0.107
action,558866,559388,2,559466,0.078
action,559466,559744,2,559847,0.103
action,559847,559982,2,560078,0.096
action,560078,560174,2,560269,0.095
action,560269,560524,2,560613,0.089
action,560613,561282,2,561397,0.115
action,561397,561626,2,563636,2.01
action,563636,563806,2,563865,0.059
action,563865,563908,2,564006,0.098
action,564006,564071,2,565530,1.459
action,565530,565773,2,565989,0.216
action,565989,566190,2,566474,0.284
action,566474,566639,2,566763,0.124
action,566763,566934,2,567305,0.371
action,567305,567740,2,568041,0.301
action,568041,568179,2,568265,0.086
action,568265,568392,2,569566,1.174
action,569566,569743,2,569939,0.196
action,569939,570294,2,571101,0.807
action,571101,571308,2,571392,0.084
action,571392,571607,2,571881,0.274
action,571881,572189,2,572319,0.13
action,572319,572892,2,593733,20.841
action,593733,594073,2,594326,0.253
action,594326,594659,2,594759,0.1
action,594759,595093,2,595221,0.128
action,595221,595364,2,595475,0.111
action,595475,595556,2,595630,0.074
action,595630,595834,2,595922,0.088
action,595922,596020,2,596108,0.088
action,596108,596478,2,596529,0.051
action,596529,596683,2,596742,0.059
action,596742,596878,2,596967,0.089
action,596967,597174,2,597282,0.108
action,597282,597352,2,597470,0.118
action,597470,597830,2,597929,0.099
action,597929,598382,2,600295,1.913
action,600295,600831,2,601088,0.257
action,601088,601281,2,601392,0.111
action,601392,601562,2,602216,0.654
action,602216,602583,2,602773,0.19
action,602773,603418,2,603842,0.424
action,603842,604044,2,604142,0.098
action,604142,604260,2,604359,0.099
action,604359,604493,2,604600,0.107
action,604600,604972,2,605066,0.094
action,605066,605604,2,605786,0.182
action,605786,605948,2,606078,0.13
action,606078,606601,2,607298,0.697
action,607298,607434,2,610694,3.26
action,610694,611162,2,611329,0.167
action,611329,611558,2,611664,0.106
action,611664,611875,2,612002,0.127
action,612002,612202,2,612317,0.115
action,612317,612469,2,613368,0.899
action,613368,613793,2,613917,0.124
action,613917,614342,2,614511,0.169
action,614511,614697,2,614774,0.077
action,614774,614948,2,615792,0.844
action,615792,616159,2,616361,0.202
action,616361,616622,2,616742,0.12
action,616742,616882,2,618411,1.529
action,618411,618886,2,619043,0.157
action,619043,619285,2,619390,0.105
action,619390,619633,2,620652,1.019
action,620652,620845,2,620972,0.127
action,620972,621145,2,621436,0.291
action,621436,621789,2,621919,0.13
action,621919,622342,2,622508,0.166
action,622508,622655,2,622738,0.083
action,622738,622852,2,623283,0.431
action,623283,623612,2,623786,0.174
action,623786,624301,2,625043,0.742
action,625043,625974,2,627250,1.276
action,627250,627697,2,628444,0.747
action,628444,629004,2,629302,0.298
action,629302,629490,2,629583,0.093
action,629583,629782,2,630382,0.6
action,630382,630756,2,630899,0.143
action,630899,631069,2,639836,8.767
action,639836,639924,2,640025,0.101
action,640025,640087,2,640201,0.114
action,640201,640250,2,640527,0.277
action,640527,640765,2,640872,0.107
action,640872,641079,2,641405,0.326
action,641405,641586,2,641691,0.105
action,641691,641823,2,642949,1.126
action,642949,643133,2,643269,0.136
action,643269,643594,2,643717,0.123
action,643717,643801,2,643916,0.115
action,643916,644118,2,644193,0.075
action,644193,644336,2,644442,0.106
action,644442,644554,2,644659,0.105
action,644659,644735,2,644900,0.165
action,644900,645272,2,1247117,601.845
action,1247117,1247465,6,1247751,0.286
action,1247751,1248100,6,1248239,0.139
action,1248239,1248357,6,1248412,0.055
action,1248412,1248709,6,1249082,0.373
action,1249082,1249378,6,1249484,0.106
action,1249484,1249800,6,1249886,0.086
action,1249886,1250181,6,1250321,0.14
action,1250321,1250476,6,1250561,0.085
action,1250561,1250961,6,1251069,0.108
action,1251069,1251445,6,1251571,0.126
action,1251571,1251850,6,1252038,0.188
action,1252038,1252364,6,1252482,0.118
action,1252482,1252721,6,1252839,0.118
action,1252839,1252925,6,1254555,1.63
action,1254555,1254964,6,1255051,0.087
action,1255051,1255315,6,1255418,0.103
action,1255418,1255669,6,1255781,0.112
action,1255781,1256259,6,1256348,0.089
action,1256348,1256649,6,1256740,0.091
action,1256740,1256835,6,1256937,0.102
action,1256937,1257010,6,1257096,0.086
action,1257096,1257421,6,1257541,0.12
action,1257541,1258270,6,1258640,0.37
action,1258640,1258766,6,1258889,0.123
action,1258889,1258997,6,1259148,0.151
action,1259148,1259540,6,1260764,1.224
action,1260764,1261013,6,1261111,0.098
action,1261111,1261399,6,1261506,0.107
action,1261506,1261643,6,1261746,0.103
action,1261746,1261840,6,1261906,0.066
action,1261906,1262160,6,1262271,0.111
action,1262271,1262563,6,1262683,0.12
action,1262683,1263093,6,1406479,143.386
action,1406479,1406951,-1,1408923,1.972
action,1408923,1408939,-1,1553645,144.706
action,1553645,1553828,7,1553926,0.098
action,1553926,1554135,7,1554281,0.146
action,1554281,1554629,7,1554725,0.096
action,1554725,1554876,7,1554969,0.093
action,1554969,1555065,7,1555156,0.091
action,1555156,1555306,7,1555715,0.409
action,1555715,1556110,7,1556221,0.111
action,1556221,1556495,7,1556618,0.123
action,1556618,1556862,7,1556966,0.104
action,1556966,1557303,7,1557381,0.078
action,1557381,1557833,7,1557956,0.123
action,1557956,1558211,7,1558304,0.093
action,1558304,1558595,7,1558771,0.176
action,1558771,1558949,7,1559049,0.1
action,1559049,1559530,7,1559660,0.13
action,1559660,1560324,7,1560443,0.119
action,1560443,1560522,7,1563729,3.207
action,1563729,1564206,7,1564735,0.529
action,1564735,1564849,7,1564983,0.134
action,1564983,1565131,7,1570968,5.837
action,1570968,1571048,7,1571090,0.042
action,1571090,1571373,7,1571495,0.122
action,1571495,1571634,7,1571734,0.1
action,1571734,1572015,7,1572170,0.155
action,1572170,1572374,7,1572476,0.102
action,1572476,1572567,7,1572665,0.098
action,1572665,1573229,7,1573513,0.284
action,1573513,1573963,7,1574082,0.119
action,1574082,1574484,7,1574585,0.101
action,1574585,1575030,7,1575130,0.1
action,1575130,1575437,7,1575576,0.139
action,1575576,1575895,7,1576005,0.11
action,1576005,1576170,7,1576233,0.063
action,1576233,1576334,7,1576692,0.358
action,1576692,1577485,7,1578115,0.63
action,1578115,1578501,7,1578582,0.081
action,1578582,1578856,7,1578955,0.099
action,1578955,1579291,7,1579397,0.106
action,1579397,1579603,7,1579712,0.109
action,1579712,1579812,7,1579919,0.107
action,1579919,1580205,7,1591208,11.003
action,1591208,1591391,7,1591464,0.073
action,1591464,1591533,7,1591666,0.133
action,1591666,1591977,7,1592157,0.18
action,1592157,1592567,7,1592673,0.106
action,1592673,1592818,7,1592934,0.116
action,1592934,1593024,7,1593121,0.097
action,1593121,1593332,7,1593422,0.09
action,1593422,1593583,7,1593719,0.136
action,1593719,1593805,7,1593885,0.08
action,1593885,1594180,7,1594316,0.136
action,1594316,1594466,7,1594577,0.111
action,1594577,1594699,7,1594760,0.061
action,1594760,1595101,7,1595204,0.103
action,1595204,1595367,7,1595452,0.085
action,1595452,1595800,7,1596496,0.696
action,1596496,1596937,7,1597030,0.093
action,1597030,1597505,7,1601757,4.252
action,1601757,1602384,7,1602529,0.145
action,1602529,1602861,7,1602983,0.122
action,1602983,1603083,7,1603186,0.103
action,1603186,1603446,7,1603573,0.127
action,1603573,1603749,7,1603865,0.116
action,1603865,1604000,7,1604179,0.179
action,1604179,1604500,7,1604624,0.124
action,1604624,1604891,7,1605034,0.143
action,1605034,1605375,7,1605506,0.131
action,1605506,1605676,7,1605840,0.164
action,1605840,1605891,7,1606025,0.134
action,1606025,1606351,7,1607279,0.928
action,1607279,1607580,7,1607716,0.136
action,1607716,1607808,7,1607891,0.083
action,1607891,1608306,7,1608413,0.107
action,1608413,1608586,7,1608677,0.091
action,1608677,1608881,7,1608929,0.048
action,1608929,1609205,7,1609296,0.091
action,1609296,1609574,7,1610243,0.669
action,1610243,1610695,7,1610791,0.096
action,1610791,1611149,7,1611416,0.267
action,1611416,1611767,7,1611817,0.05
action,1611817,1612125,7,1612207,0.082
action,1612207,1612786,7,1612966,0.18
action,1612966,1613343,7,1613566,0.223
action,1613566,1613910,7,1613992,0.082
action,1613992,1617136,7,2205952,588.816
action,2205952,2207642,11,2208483,0.841
action,2208483,2209214,11,2308946,99.732
action,2308946,2309156,9,2309231,0.075
action,2309231,2309480,9,2309582,0.102
action,2309582,2309924,9,2310017,0.093
action,2310017,2310315,9,2310717,0.402
action,2310717,2311406,9,2311504,0.098
action,2311504,2311698,9,2311784,0.086
action,2311784,2311884,9,2311958,0.074
action,2311958,2312131,9,2312218,0.087
action,2312218,2312363,9,2312462,0.099
action,2312462,2312579,9,2312690,0.111
action,2312690,2312763,9,2312845,0.082
action,2312845,2313466,9,2313584,0.118
action,2313584,2313693,9,2313765,0.072
action,2313765,2314031,9,2314418,0.387
action,2314418,2315455,9,2315503,0.048
action,2315503,2315667,9,2315738,0.071
action,2315738,2315840,9,2315935,0.095
action,2315935,2315992,9,2316093,0.101
action,2316093,2316793,9,2316861,0.068
action,2316861,2316968,9,2317056,0.088
action,2317056,2317751,9,2320571,2.82
action,2320571,2321091,9,2321196,0.105
action,2321196,2321326,9,2321432,0.106
action,2321432,2321704,9,2321836,0.132
action,2321836,2322081,9,2322166,0.085
action,2322166,2322503,9,2322651,0.148
action,2322651,2322845,9,2322912,0.067
action,2322912,2322991,9,2323061,0.07
action,2323061,2323691,9,2324116,0.425
action,2324116,2324296,9,2324429,0.133
action,2324429,2324710,9,2324806,0.096
action,2324806,2324925,9,2325017,0.092
action,2325017,2325100,9,2325178,0.078
action,2325178,2325528,9,2325626,0.098
action,2325626,2325931,9,2326040,0.109
action,2326040,2326422,9,2326514,0.092
action,2326514,2326820,9,2326875,0.055
action,2326875,2327166,9,2327249,0.083
action,2327249,2329427,9,2424083,94.656
action,2424083,2424420,9,2424551,0.131
action,2424551,2424704,9,2424780,0.076
action,2424780,2424873,9,2424956,0.083
action,2424956,2425256,9,2425344,0.088
action,2425344,2425488,9,2425579,0.091
action,2425579,2425868,9,2425949,0.081
action,2425949,2426983,9,2427422,0.439
action,2427422,2427611,9,2427730,0.119
action,2427730,2428046,9,2428646,0.6
action,2428646,2428875,9,2428985,0.11
action,2428985,2429181,9,2429242,0.061
action,2429242,2429695,9,2429815,0.12
action,2429815,2430099,9,2430658,0.559
action,2430658,2430800,9,2430906,0.106
action,2430906,2431038,9,2431083,0.045
action,2431083,2431370,9,2431511,0.141
action,2431511,2431984,9,2432136,0.152
action,2432136,2432468,9,2432561,0.093
action,2432561,2432759,9,2432935,0.176
action,2432935,2432985,9,2433027,0.042
action,2433027,2433331,9,2435080,1.749
action,2435080,2435240,9,2435472,0.232
action,2435472,2435696,9,2435774,0.078
action,2435774,2435975,9,2436076,0.101
action,2436076,2436198,9,2436269,0.071
action,2436269,2436570,9,2436712,0.142
action,2436712,2436866,9,2436923,0.057
action,2436923,2437125,9,2437304,0.179
action,2437304,2437453,9,2437999,0.546
action,2437999,2438149,9,2438261,0.112
action,2438261,2438512,9,2438602,0.09
action,2438602,2439507,9,2439655,0.148
action,2439655,2439827,9,2439869,0.042
action,2439869,2440167,9,2440271,0.104
action,2440271,2440381,9,2449084,8.703
action,2449084,2449355,9,2449437,0.082
action,2449437,2449839,9,2449918,0.079
action,2449918,2450222,9,2450321,0.099
action,2450321,2450620,9,2450714,0.094
action,2450714,2450852,9,2450958,0.106
action,2450958,2451323,9,2451460,0.137
action,2451460,2451578,9,2451648,0.07
action,2451648,2451870,9,2452025,0.155
action,2452025,2452250,9,2454128,1.878
action,2454128,2454881,9,2455143,0.262
action,2455143,2455376,9,2455571,0.195
action,2455571,2455690,9,2455846,0.156
action,2455846,2456262,9,2456483,0.221
action,2456483,2456965,9,2457101,0.136
action,2457101,2457470,9,2458392,0.922
action,2458392,2459144,9,2461953,2.809
action,2461953,2462379,9,2462531,0.152
action,2462531,2462864,9,2462930,0.066
action,2462930,2464607,9,2466224,1.617
action,2466224,2467104,9,2467205,0.101
action,2467205,2467496,9,2467563,0.067
action,2467563,2467856,9,2467939,0.083
action,2467939,2468114,9,2468207,0.093
action,2468207,2468448,9,2468531,0.083
action,2468531,2468696,9,2468761,0.065
action,2468761,2469391,9,2469486,0.095
action,2469486,2469892,9,2470039,0.147
action,2470039,2470119,9,2470183,0.064
action,2470183,2470342,9,2470433,0.091
action,2470433,2470530,9,2470852,0.322
action,2470852,2471263,9,2471390,0.127
action,2471390,2472004,9,2472195,0.191
action,2472195,2472672,9,2472809,0.137
action,2472809,2473063,9,2473197,0.134
action,2473197,2473281,9,2473395,0.114
action,2473395,2473501,9,2473627,0.126
action,2473627,2474478,9,2475825,1.347
action,2475825,2476055,9,2476249,0.194
action,2476249,2477994,9,2478212,0.218
action,2478212,2478258,9,2504348,26.09
action,2504348,2504615,11,2505038,0.423
action,2505038,2505366,11,2505587,0.221
action,2505587,2506024,11,2506221,0.197
action,2506221,2506495,11,2506628,0.133
action,2506628,2506964,11,2507039,0.075
action,2507039,2507478,11,2509127,1.649
action,2509127,2509806,11,2511839,2.033
action,2511839,2512221,11,2512399,0.178
action,2512399,2513297,11,2519574,6.277
action,2519574,2519622,11,2519711,0.089
action,2519711,2520051,11,2520243,0.192
action,2520243,2520403,11,2520454,0.051
action,2520454,2520672,11,2520763,0.091
action,2520763,2521152,11,2521247,0.095
action,2521247,2521392,11,2521437,0.045
action,2521437,2521754,11,2521949,0.195
action,2521949,2522154,11,2522454,0.3
action,2522454,2522518,11,2522666,0.148
action,2522666,2522925,11,2531121,8.196
action,2531121,2531565,11,2531810,0.245
action,2531810,2531988,11,2532375,0.387
action,2532375,2533025,11,2533153,0.128
action,2533153,2533363,11,2533552,0.189
action,2533552,2533810,11,2533891,0.081
action,2533891,2534305,11,2534417,0.112
action,2534417,2534866,11,2535296,0.43
action,2535296,2535544,11,2535666,0.122
action,2535666,2536128,11,2537575,1.447
action,2537575,2537944,11,2538067,0.123
action,2538067,2539036,11,2539221,0.185
action,2539221,2539389,11,2539436,0.047
action,2539436,2539807,11,2540086,0.279
action,2540086,2540684,11,2541576,0.892
action,2541576,2541944,11,2542258,0.314
action,2542258,2542540,11,2542706,0.166
action,2542706,2542943,11,2543116,0.173
action,2543116,2543352,11,2543612,0.26
action,2543612,2544174,11,2544244,0.07
action,2544244,2544395,11,2544497,0.102
action,2544497,2544652,11,2544721,0.069
action,2544721,2544938,11,2545093,0.155
action,2545093,2545276,11,2545314,0.038
action,2545314,2545633,11,2591501,45.868
action,2591501,2591751,11,2591851,0.1
action,2591851,2591974,11,2592031,0.057
action,2592031,2592356,11,2592457,0.101
action,2592457,2592772,11,2594228,1.456
action,2594228,2595487,11,2595904,0.417
action,2595904,2596343,11,2596606,0.263
action,2596606,2596763,11,2596878,0.115
action,2596878,2597032,11,2597106,0.074
action,2597106,2597479,11,2597581,0.102
action,2597581,2597922,11,2598051,0.129
action,2598051,2598300,11,2598351,0.051
action,2598351,2598639,11,2598712,0.073
action,2598712,2598897,11,2598949,0.052
action,2598949,2599144,11,2599237,0.093
action,2599237,2599553,11,2599659,0.106
action,2599659,2599921,11,2601141,1.22
action,2601141,2601565,11,2601688,0.123
action,2601688,2602094,11,2602195,0.101
action,2602195,2602405,11,2602501,0.096
action,2602501,2602660,11,2603669,1.009
action,2603669,2604204,11,2604296,0.092
action,2604296,2604483,11,2604572,0.089
action,2604572,2604682,11,2604786,0.104
action,2604786,2605091,11,2605209,0.118
action,2605209,2605531,11,2605669,0.138
action,2605669,2605940,11,2606019,0.079
action,2606019,2606392,11,2606979,0.587
action,2606979,2607337,11,2607437,0.1
action,2607437,2607850,11,2607956,0.106
action,2607956,2608216,11,2608309,0.093
action,2608309,2608436,11,2608805,0.369
action,2608805,2609235,11,2609313,0.078
action,2609313,2609639,11,2610029,0.39
action,2610029,2610228,11,2610304,0.076
action,2610304,2610446,11,2610554,0.108
action,2610554,2610899,11,2610953,0.054
action,2610953,2611307,11,2612222,0.915
action,2612222,2612937,11,2612970,0.033
action,2612970,2613176,11,2613242,0.066
action,2613242,2613635,11,2613754,0.119
action,2613754,2614298,11,2614376,0.078
action,2614376,2614478,11,2614570,0.092
action,2614570,2615014,11,2615093,0.079
action,2615093,2615276,11,2615947,0.671
action,2615947,2616341,11,2616519,0.178
action,2616519,2616926,11,2617015,0.089
action,2617015,2617416,11,2617537,0.121
action,2617537,2617939,11,2618063,0.124
action,2618063,2618195,11,2732553,114.358
action,2732553,2733122,12,2733433,0.311
action,2733433,2733966,12,2734162,0.196
action,2734162,2734665,12,2759852,25.187
action,2759852,2760262,13,2760431,0.169
action,2760431,2760764,13,2760923,0.159
action,2760923,2761362,13,2762719,1.357
action,2762719,2763060,13,2763151,0.091
action,2763151,2763506,13,2763595,0.089
action,2763595,2763763,13,2763894,0.131
action,2763894,2764062,13,2764196,0.134
action,2764196,2764299,13,2764615,0.316
action,2764615,2765039,13,2765208,0.169
action,2765208,2765446,13,2765532,0.086
action,2765532,2765721,13,2765890,0.169
action,2765890,2766339,13,2766455,0.116
action,2766455,2766835,13,2766915,0.08
action,2766915,2767251,13,2767348,0.097
action,2767348,2767607,13,2767715,0.108
action,2767715,2767888,13,2767995,0.107
action,2767995,2768263,13,2768333,0.07
action,2768333,2768401,13,2768515,0.114
action,2768515,2768768,13,2768851,0.083
action,2768851,2769190,13,2769732,0.542
action,2769732,2770400,13,2770497,0.097
action,2770497,2770712,13,2770768,0.056
action,2770768,2770860,13,2770962,0.102
action,2770962,2771325,13,2771402,0.077
action,2771402,2771736,13,2771822,0.086
action,2771822,2771991,13,2772085,0.094
action,2772085,2772231,13,2772269,0.038
action,2772269,2772619,13,2772700,0.081
action,2772700,2773265,13,2777953,4.688
action,2777953,2778928,14,2779056,0.128
action,2779056,2779375,14,2779475,0.1
action,2779475,2779874,14,2780050,0.176
action,2780050,2780254,14,2780355,0.101
action,2780355,2780571,14,2780667,0.096
action,2780667,2781090,14,2781180,0.09
action,2781180,2781361,14,2781428,0.067
action,2781428,2781574,14,2781659,0.085
action,2781659,2781880,14,2781950,0.07
action,2781950,2782077,14,2782245,0.168
action,2782245,2782776,14,2782881,0.105
action,2782881,2783014,14,2783132,0.118
action,2783132,2783210,14,2783307,0.097
action,2783307,2783623,14,2783718,0.095
action,2783718,2783996,14,2784068,0.072
action,2784068,2784206,14,2784301,0.095
action,2784301,2784413,14,2784483,0.07
action,2784483,2784807,14,2784898,0.091
action,2784898,2785471,14,2786528,1.057
action,2786528,2786735,14,2786843,0.108
action,2786843,2786979,14,2787072,0.093
action,2787072,2787209,14,2787319,0.11
action,2787319,2787580,14,2787682,0.102
action,2787682,2787826,14,2787922,0.096
action,2787922,2788048,14,2788164,0.116
action,2788164,2788311,14,2788426,0.115
action,2788426,2788627,14,2788738,0.111
action,2788738,2789070,14,2789197,0.127
action,2789197,2789359,14,2789440,0.081
action,2789440,2789546,14,2789697,0.151
action,2789697,2789862,14,2789986,0.124
action,2789986,2790099,14,2790247,0.148
action,2790247,2790465,14,2790566,0.101
action,2790566,2790840,14,2790941,0.101
action,2790941,2791117,14,2791200,0.083
action,2791200,2791340,14,2791476,0.136
action,2791476,2791620,14,2791697,0.077
action,2791697,2791816,14,2791890,0.074
action,2791890,2792196,14,2792276,0.08
action,2792276,2792820,14,2792956,0.136
action,2792956,2793123,14,2847968,54.845
action,2847968,2848454,12,2848615,0.161
action,2848615,2848837,12,2849076,0.239
action,2849076,2849319,12,2849559,0.24
action,2849559,2849737,12,2849863,0.126
action,2849863,2850278,12,2850880,0.602
action,2850880,2851230,12,2851357,0.127
action,2851357,2851688,12,2851767,0.079
action,2851767,2851950,12,2852048,0.098
action,2852048,2852153,12,2852906,0.753
action,2852906,2853279,12,2853358,0.079
action,2853358,2853722,12,2853769,0.047
action,2853769,2853926,12,2854031,0.105
action,2854031,2854378,12,2854489,0.111
action,2854489,2854666,12,2854760,0.094
action,2854760,2854968,12,2855057,0.089
action,2855057,2855251,12,2855398,0.147
action,2855398,2855449,12,2855521,0.072
action,2855521,2855856,12,2855944,0.088
action,2855944,2856320,12,2862515,6.195
action,2862515,2862962,14,2863080,0.118
action,2863080,2863306,14,2863423,0.117
action,2863423,2863645,14,2863778,0.133
action,2863778,2864014,14,2864095,0.081
action,2864095,2864504,14,2864589,0.085
action,2864589,2864922,14,2865015,0.093
action,2865015,2865375,14,2865471,0.096
action,2865471,2865862,14,2866156,0.294
action,2866156,2866501,14,2866597,0.096
action,2866597,2866980,14,2867037,0.057
action,2867037,2867214,14,2867285,0.071
action,2867285,2867645,14,2867736,0.091
action,2867736,2867979,14,2868080,0.101
action,2868080,2868313,14,2868414,0.101
action,2868414,2868495,14,2868629,0.134
action,2868629,2868908,14,2869015,0.107
action,2869015,2869380,14,3037480,168.1
action,3037480,3037633,15,3037768,0.135
action,3037768,3037909,15,3038019,0.11
action,3038019,3038273,15,3038413,0.14
action,3038413,3038620,15,3038715,0.095
action,3038715,3038860,15,3038923,0.063
action,3038923,3039056,15,3039159,0.103
action,3039159,3039267,15,3039351,0.084
action,3039351,3039649,15,3039738,0.089
action,3039738,3040085,15,3040734,0.649
action,3040734,3040910,15,3041021,0.111
action,3041021,3041206,15,3041295,0.089
action,3041295,3041556,15,3041631,0.075
action,3041631,3041735,15,3041850,0.115
action,3041850,3041958,15,3042040,0.082
action,3042040,3042304,15,3042427,0.123
action,3042427,3042534,15,3042637,0.103
action,3042637,3042715,15,3042843,0.128
action,3042843,3043066,15,3043171,0.105
action,3043171,3043322,15,3043417,0.095
action,3043417,3043533,15,3044422,0.889
action,3044422,3044594,15,3044685,0.091
action,3044685,3044791,15,3044870,0.079
action,3044870,3045258,15,3045348,0.09
action,3045348,3045508,15,3045603,0.095
action,3045603,3045723,15,3045810,0.087
action,3045810,3046129,15,3046241,0.112
action,3046241,3046424,15,3046490,0.066
action,3046490,3046611,15,3046719,0.108
action,3046719,3047032,15,3047107,0.075
action,3047107,3047431,15,3047551,0.12
action,3047551,3047723,15,3047800,0.077
action,3047800,3048019,15,3048107,0.088
action,3048107,3048445,15,3048603,0.158
action,3048603,3048676,15,3048792,0.116
action,3048792,3049069,15,3049173,0.104
action,3049173,3049498,15,3051332,1.834
action,3051332,3051841,15,3056501,4.66
action,3056501,3057042,15,3058458,1.416
action,3058458,3058863,15,3058909,0.046
action,3058909,3059207,15,3059280,0.073
action,3059280,3059403,15,3059486,0.083
action,3059486,3059554,15,3059663,0.109
action,3059663,3060167,15,3060296,0.129
action,3060296,3060508,15,3060643,0.135
action,3060643,3060728,15,3060830,0.102
action,3060830,3061129,15,3061765,0.636
action,3061765,3062015,15,3062095,0.08
action,3062095,3062259,15,3062335,0.076
action,3062335,3062650,15,3062749,0.099
action,3062749,3063059,15,3063192,0.133
action,3063192,3063501,15,3063574,0.073
action,3063574,3063844,15,3063973,0.129
action,3063973,3064147,15,3064215,0.068
action,3064215,3064534,15,3064618,0.084
action,3064618,3064805,15,3064903,0.098
action,3064903,3065108,15,3065203,0.095
action,3065203,3065344,15,3065372,0.028
action,3065372,3065627,15,3065690,0.063
action,3065690,3066093,15,3066188,0.095
action,3066188,3066244,15,3148775,82.531
action,3148775,3148999,16,3149289,0.29
action,3149289,3149498,16,3149696,0.198
action,3149696,3150015,16,3151059,1.044
action,3151059,3151658,16,3151748,0.09
action,3151748,3152018,16,3152155,0.137
action,3152155,3152263,16,3152343,0.08
action,3152343,3152481,16,3152619,0.138
action,3152619,3152714,16,3152814,0.1
action,3152814,3152940,16,3152988,0.048
action,3152988,3153325,16,3153394,0.069
action,3153394,3153685,16,3154063,0.378
action,3154063,3154517,16,3154625,0.108
action,3154625,3154935,16,3155014,0.079
action,3155014,3155502,16,3155602,0.1
action,3155602,3155776,16,3155878,0.102
action,3155878,3156207,16,3158657,2.45
action,3158657,3159042,16,3159145,0.103
action,3159145,3159430,16,3159490,0.06
action,3159490,3159563,16,3160195,0.632
action,3160195,3160369,16,3160475,0.106
action,3160475,3160584,16,3160655,0.071
action,3160655,3160977,16,3161065,0.088
action,3161065,3161390,16,3162042,0.652
action,3162042,3162294,16,3162374,0.08
action,3162374,3162531,16,3162622,0.091
action,3162622,3162696,16,3162792,0.096
action,3162792,3163172,16,3163224,0.052
action,3163224,3163544,16,3163836,0.292
action,3163836,3164054,16,3164151,0.097
action,3164151,3164246,16,3164298,0.052
action,3164298,3165043,16,3165140,0.097
action,3165140,3165400,16,3165465,0.065
action,3165465,3165583,16,3267655,102.072
action,3267655,3268098,17,3268169,0.071
action,3268169,3268278,17,3268364,0.086
action,3268364,3268508,17,3268626,0.118
action,3268626,3268822,17,3268976,0.154
action,3268976,3269129,17,3269250,0.121
action,3269250,3269430,17,3269534,0.104
action,3269534,3269679,17,3269800,0.121
action,3269800,3270120,17,3270215,0.095
action,3270215,3270586,17,3270670,0.084
action,3270670,3271248,17,3271690,0.442
action,3271690,3272239,17,3272350,0.111
action,3272350,3272555,17,3272640,0.085
action,3272640,3272765,17,3272855,0.09
action,3272855,3273019,17,3273146,0.127
action,3273146,3273241,17,3273290,0.049
action,3273290,3273587,17,3273671,0.084
action,3273671,3274101,17,3274223,0.122
action,3274223,3274345,17,3274942,0.597
action,3274942,3275210,17,3275286,0.076
action,3275286,3275614,17,3275688,0.074
action,3275688,3275856,17,3276018,0.162
action,3276018,3276757,17,3276831,0.074
action,3276831,3277450,17,3277527,0.077
action,3277527,3277786,17,3277845,0.059
action,3277845,3277941,17,3278025,0.084
action,3278025,3278568,17,3278765,0.197
action,3278765,3279172,17,3279257,0.085
action,3279257,3279627,17,3279819,0.192
action,3279819,3280013,17,3280169,0.156
action,3280169,3280643,17,3280768,0.125
action,3280768,3280978,17,3281049,0.071
action,3281049,3281589,17,3281756,0.167
action,3281756,3282576,17,3282576,0
